postalcode;name;municipality_nis;municipality_name;province_nis;province_name
9220;Hamme-Moerzeke;42008;Hamme;40000;Flandre orientale (la)
9660;Nederbrakel-Opbrakel-Zegelsem-Elst-Michelbeke-Everbeek;45059;Brakel;40000;Flandre orientale (la)
9661;Parike;45059;Brakel;40000;Flandre orientale (la)
9790;Petegem-aan-de-Schelde-Wortegem-Ooike-Moregem-Elsegem;45061;Wortegem-Petegem;40000;Flandre orientale (la)
9990;Maldegem;43010;Maldegem;40000;Flandre orientale (la)
9992;Middelburg;43010;Maldegem;40000;Flandre orientale (la)
9991;Adegem;43010;Maldegem;40000;Flandre orientale (la)
9400;Ninove-Okegem-Lieferinge-Denderwindeke-Appelterre-Eichem-Voorde-Nederhasselt;41048;Ninove;40000;Flandre orientale (la)
9402;Meerbeke;41048;Ninove;40000;Flandre orientale (la)
9403;Neigem;41048;Ninove;40000;Flandre orientale (la)
9401;Pollare;41048;Ninove;40000;Flandre orientale (la)
9404;Aspelare;41048;Ninove;40000;Flandre orientale (la)
9406;Outer;41048;Ninove;40000;Flandre orientale (la)
9180;Moerbeke;44045;Moerbeke;40000;Flandre orientale (la)
9160;Lokeren-Eksaarde-Daknam;46014;Lokeren;40000;Flandre orientale (la)
9570;Sint-Maria-Lierde-Deftinge;45063;Lierde;40000;Flandre orientale (la)
9571;Hemelveerdegem;45063;Lierde;40000;Flandre orientale (la)
9572;Sint-Martens-Lierde;45063;Lierde;40000;Flandre orientale (la)
9450;Haaltert-Denderhoutem-Heldergem;41024;Haaltert;40000;Flandre orientale (la)
9451;Kerksken;41024;Haaltert;40000;Flandre orientale (la)
9800;Deinze-Astene-Petegem-aan-de-Leie-Zeveren-Grammene-Gottem-Wontergem-Vinkt-Meigem-Bachte-Maria-Leerne-Sint-Martens-Leerne;44011;Deinze;40000;Flandre orientale (la)
9850;Nevele-Poesele-Hansbeke-Merendree-Landegem-Vosselare;44049;Deinze;40000;Flandre orientale (la)
9250;Waasmunster;42023;Waasmunster;40000;Flandre orientale (la)
9860;Oosterzele-Balegem-Scheldewindeke-Moortsele-Landskouter-Gijzenzele;44052;Oosterzele;40000;Flandre orientale (la)
9080;Lochristi-Zaffelare-Zeveneken-Beervelde;44034;Lochristi;40000;Flandre orientale (la)
9150;Kruibeke-Bazel-Rupelmonde;46013;Kruibeke;40000;Flandre orientale (la)
9520;Sint-Lievens-Houtem-Bavegem-Vlierzele-Zonnegem;41063;Sint-Lievens-Houtem;40000;Flandre orientale (la)
9521;Letterhoutem;41063;Sint-Lievens-Houtem;40000;Flandre orientale (la)
9900;Eeklo;43005;Eeklo;40000;Flandre orientale (la)
9630;Munkzwalm-Paulatem-Sint-Maria-Latem-Meilegem-Beerlegem-Dikkele-Hundelgem-Roborst-Rozebeke-Sint-Blasius-Boekel-Sint-Denijs-Boekel;45065;Zwalm;40000;Flandre orientale (la)
9636;Nederzwalm-Hermelgem;45065;Zwalm;40000;Flandre orientale (la)
9270;Laarne-Kalken;42010;Laarne;40000;Flandre orientale (la)
9260;Wichelen-Serskamp-Schellebelle;42026;Wichelen;40000;Flandre orientale (la)
9667;Sint-Maria-Horebeke-Sint-Kornelis-Horebeke;45062;Horebeke;40000;Flandre orientale (la)
9200;Dendermonde-Appels-Sint-Gillis-bij-Dendermonde-Grembergen-Baasrode-Oudegem-Mespelare-Schoonaarde;42006;Dendermonde;40000;Flandre orientale (la)
9140;Temse-Steendorp-Tielrode-Elversele;46025;Temse;40000;Flandre orientale (la)
9970;Kaprijke;43007;Kaprijke;40000;Flandre orientale (la)
9971;Lembeke;43007;Kaprijke;40000;Flandre orientale (la)
9280;Lebbeke-Wieze-Denderbelle;42011;Lebbeke;40000;Flandre orientale (la)
9960;Assenede;43002;Assenede;40000;Flandre orientale (la)
9968;Oosteeklo-Bassevelde;43002;Assenede;40000;Flandre orientale (la)
9961;Boekhoute;43002;Assenede;40000;Flandre orientale (la)
9170;Sint-Gillis-Waas-De Klinge-Meerdonk-Sint-Pauwels;46020;Sint-Gillis-Waas;40000;Flandre orientale (la)
9890;Gavere-Semmerzake-Vurste-Baaigem-Dikkelvenne-Asper;44020;Gavere;40000;Flandre orientale (la)
9680;Etikhove-Maarke-Kerkem;45064;Maarkedal;40000;Flandre orientale (la)
9681;Nukerke;45064;Maarkedal;40000;Flandre orientale (la)
9688;Schorisse;45064;Maarkedal;40000;Flandre orientale (la)
9880;Aalter-Lotenhulle-Poeke;44001;Aalter;40000;Flandre orientale (la)
9881;Bellem;44001;Aalter;40000;Flandre orientale (la)
9910;Knesselare-Ursel;44029;Aalter;40000;Flandre orientale (la)
9185;Wachtebeke;44073;Wachtebeke;40000;Flandre orientale (la)
9420;Mere-Erpe-Aaigem-Burst-Bambrugge-Ottergem-Vlekkem-Erondegem;41082;Erpe-Mere;40000;Flandre orientale (la)
9940;Evergem-Sleidinge-Ertvelde-Kluizen;44019;Evergem;40000;Flandre orientale (la)
9032;Wondelgem;44021;Evergem;40000;Flandre orientale (la)
9920;Lovendegem;44036;Lievegem;40000;Flandre orientale (la)
9921;Vinderhoute;44036;Lievegem;40000;Flandre orientale (la)
9950;Waarschoot;44072;Lievegem;40000;Flandre orientale (la)
9930;Zomergem;44080;Lievegem;40000;Flandre orientale (la)
9932;Ronsele;44080;Lievegem;40000;Flandre orientale (la)
9931;Oostwinkel;44080;Lievegem;40000;Flandre orientale (la)
9620;Zottegem-Elene-Oombergen-Leeuwergem-Grotenberge-Godveerdegem-Erwetegem-Sint-Goriks-Oudenhove-Strijpen-Velzeke-Ruddershove-Sint-Maria-Oudenhove;41081;Zottegem;40000;Flandre orientale (la)
9810;Nazareth-Eke;44048;Nazareth;40000;Flandre orientale (la)
9500;Geraardsbergen-Nederboelare-Onkerzele-Overboelare-Goeferdinge-Zarlardinge-Ophasselt-Moerbeke-Viane;41018;Geraardsbergen;40000;Flandre orientale (la)
9506;Schendelbeke-Smeerebbe-Vloerzegem-Idegem-Grimminge-Zandbergen-Nieuwenhove-Waarbeke;41018;Geraardsbergen;40000;Flandre orientale (la)
9100;Sint-Niklaas-Nieuwkerken-Waas;46021;Sint-Niklaas;40000;Flandre orientale (la)
9111;Belsele;46021;Sint-Niklaas;40000;Flandre orientale (la)
9112;Sinaai;46021;Sint-Niklaas;40000;Flandre orientale (la)
9830;Sint-Martens-Latem;44064;Sint-Martens-Latem;40000;Flandre orientale (la)
9831;Deurle;44064;Sint-Martens-Latem;40000;Flandre orientale (la)
9340;Lede-Wanzele-Impe-Smetlede-Oordegem;41034;Lede;40000;Flandre orientale (la)
9700;Oudenaarde-Bevere-Leupegem-Edelare-Volkegem-Ename-Nederename-Eine-Heurne-Welden-Mater-Melden-Mullem;45035;Oudenaarde;40000;Flandre orientale (la)
9690;Ruien-Berchem-Kwaremont-Zulzeke;45060;Kluisbergen;40000;Flandre orientale (la)
9060;Zelzate;43018;Zelzate;40000;Flandre orientale (la)
9550;Herzele-Hillegem-Woubrechtegem-Sint-Antelinks-Steenhuize-Wijnhuize-Sint-Lievens-Esse;41027;Herzele;40000;Flandre orientale (la)
9552;Borsbeke;41027;Herzele;40000;Flandre orientale (la)
9551;Ressegem;41027;Herzele;40000;Flandre orientale (la)
9190;Stekene-Kemzeke;46024;Stekene;40000;Flandre orientale (la)
9240;Zele;42028;Zele;40000;Flandre orientale (la)
9470;Denderleeuw;41011;Denderleeuw;40000;Flandre orientale (la)
9472;Iddergem;41011;Denderleeuw;40000;Flandre orientale (la)
9473;Welle;41011;Denderleeuw;40000;Flandre orientale (la)
9290;Berlare-Uitbergen-Overmere;42003;Berlare;40000;Flandre orientale (la)
9255;Buggenhout-Opdorp;42004;Buggenhout;40000;Flandre orientale (la)
9600;Ronse;45041;Renaix;40000;Flandre orientale (la)
9980;Sint-Laureins;43014;Sint-Laureins;40000;Flandre orientale (la)
9981;Sint-Margriete;43014;Sint-Laureins;40000;Flandre orientale (la)
9982;Sint-Jan-in-Eremo;43014;Sint-Laureins;40000;Flandre orientale (la)
9988;Waterland-Oudeman-Watervliet;43014;Sint-Laureins;40000;Flandre orientale (la)
9070;Destelbergen-Heusden;44013;Destelbergen;40000;Flandre orientale (la)
9300;Aalst;41002;Aalst;40000;Flandre orientale (la)
9308;Hofstade-Gijzegem;41002;Aalst;40000;Flandre orientale (la)
9310;Herdersem-Moorsel-Baardegem-Meldert;41002;Aalst;40000;Flandre orientale (la)
9320;Erembodegem-Nieuwerkerken;41002;Aalst;40000;Flandre orientale (la)
9090;Melle-Gontrode;44040;Melle;40000;Flandre orientale (la)
9840;De Pinte-Zevergem;44012;De Pinte;40000;Flandre orientale (la)
9120;Beveren-Vrasene-Kallo-Melsele-Haasdonk;46003;Beveren;40000;Flandre orientale (la)
9130;Verrebroek-Kieldrecht-Doel;46003;Beveren;40000;Flandre orientale (la)
9230;Wetteren-Massemen-Westrem;42025;Wetteren;40000;Flandre orientale (la)
9820;Merelbeke-Lemberge-Bottelare-Munte-Schelderode-Melsen;44043;Merelbeke;40000;Flandre orientale (la)
9770;Kruishoutem;45017;Kruisem;40000;Flandre orientale (la)
9772;Wannegem-Lede;45017;Kruisem;40000;Flandre orientale (la)
9771;Nokere;45017;Kruisem;40000;Flandre orientale (la)
9750;Zingem-Ouwegem-Huise;45057;Kruisem;40000;Flandre orientale (la)
9870;Zulte-Olsene-Machelen;44081;Zulte;40000;Flandre orientale (la)
9000;Gent;44021;Gent;40000;Flandre orientale (la)
9042;Sint-Kruis-Winkel-Mendonk-Desteldonk;44021;Gent;40000;Flandre orientale (la)
9041;Oostakker;44021;Gent;40000;Flandre orientale (la)
9040;Sint-Amandsberg;44021;Gent;40000;Flandre orientale (la)
9050;Gentbrugge-Ledeberg;44021;Gent;40000;Flandre orientale (la)
9052;Zwijnaarde;44021;Gent;40000;Flandre orientale (la)
9051;Sint-Denijs-Westrem-Afsnee;44021;Gent;40000;Flandre orientale (la)
9031;Drongen;44021;Gent;40000;Flandre orientale (la)
9030;Mariakerke;44021;Gent;40000;Flandre orientale (la)
6150;Anderlues;56001;Anderlues;50000;Hainaut (le)
6590;Momignies;56051;Momignies;50000;Hainaut (le)
6591;Macon;56051;Momignies;50000;Hainaut (le)
6592;Monceau-Imbrechies;56051;Momignies;50000;Hainaut (le)
6596;Seloignes-Forge-Philippe;56051;Momignies;50000;Hainaut (le)
6593;Macquenoise;56051;Momignies;50000;Hainaut (le)
6594;Beauwelz;56051;Momignies;50000;Hainaut (le)
7970;Bel?il;51008;Bel?il;50000;Hainaut (le)
7973;Stambruges-Grandglise;51008;Bel?il;50000;Hainaut (le)
7972;Quevaucamps-Ellignies-Sainte-Anne-Aubechies;51008;Bel?il;50000;Hainaut (le)
7971;Basècles-Thumaide-Ramegnies-Wadelincourt;51008;Bel?il;50000;Hainaut (le)
6230;Pont-à-Celles-Obaix-Buzet-Thiméon-Viesville;52055;Pont-à-Celles;50000;Hainaut (le)
6238;Luttre-Liberchies;52055;Pont-à-Celles;50000;Hainaut (le)
7600;Péruwelz;57064;Péruwelz;50000;Hainaut (le)
7608;Wiers;57064;Péruwelz;50000;Hainaut (le)
7604;Callenelle-Brasmenil-Wasmes-Audemez-Briffoeil-Baugnies-Braffe;57064;Péruwelz;50000;Hainaut (le)
7602;Bury;57064;Péruwelz;50000;Hainaut (le)
7601;Roucourt;57064;Péruwelz;50000;Hainaut (le)
7603;Bon-Secours;57064;Péruwelz;50000;Hainaut (le)
7080;Frameries-Noirchain-La Bouverie-Eugies-Sars-la-Bruyère;53028;Frameries;50000;Hainaut (le)
7950;Chièvres-Tongre-Saint-Martin-Ladeuze-Grosage-Huissignies;51014;Chièvres;50000;Hainaut (le)
7951;Tongre-Notre-Dame;51014;Chièvres;50000;Hainaut (le)
6280;Gerpinnes-Loverval-Joncret-Acoz-Villers-Poterie-Gougnies;52025;Gerpinnes;50000;Hainaut (le)
7730;Estaimpuis-Évregnies-Saint-Léger-Estaimbourg-Bailleul-Néchin-Leers-Nord;57027;Estaimpuis;50000;Hainaut (le)
7870;Lens-Bauffe-Montignies-lez-Lens-Cambron-Saint-Vincent-Lombise;53046;Lens;50000;Hainaut (le)
6120;Ham-sur-Heure-Nalinnes-Cour-sur-Heure-Marbaix-Jamioulx;56086;Ham-sur-Heure-Nalinnes;50000;Hainaut (le)
6530;Thuin-Leers-et-Fosteau;56078;Thuin;50000;Hainaut (le)
6534;Gozée;56078;Thuin;50000;Hainaut (le)
6531;Biesme-sous-Thuin;56078;Thuin;50000;Hainaut (le)
6536;Thuillies-Donstiennes;56078;Thuin;50000;Hainaut (le)
6532;Ragnies;56078;Thuin;50000;Hainaut (le)
6533;Biercée;56078;Thuin;50000;Hainaut (le)
6000;Charleroi;52011;Charleroi;50000;Hainaut (le)
6020;Dampremy;52011;Charleroi;50000;Hainaut (le)
6042;Lodelinsart;52011;Charleroi;50000;Hainaut (le)
6060;Gilly;52011;Charleroi;50000;Hainaut (le)
6061;Montignies-sur-Sambre;52011;Charleroi;50000;Hainaut (le)
6010;Couillet;52011;Charleroi;50000;Hainaut (le)
6001;Marcinelle;52011;Charleroi;50000;Hainaut (le)
6032;Mont-sur-Marchienne;52011;Charleroi;50000;Hainaut (le)
6030;Marchienne-au-Pont-Goutroux;52011;Charleroi;50000;Hainaut (le)
6031;Monceau-sur-Sambre;52011;Charleroi;50000;Hainaut (le)
6044;Roux;52011;Charleroi;50000;Hainaut (le)
6040;Jumet;52011;Charleroi;50000;Hainaut (le)
6041;Gosselies;52011;Charleroi;50000;Hainaut (le)
6043;Ransart;52011;Charleroi;50000;Hainaut (le)
7130;Binche-Bray;56011;Binche;50000;Hainaut (le)
7134;Ressaix-Leval-Trahegnies-Épinois-Péronnes;56011;Binche;50000;Hainaut (le)
7133;Buvrinnes;56011;Binche;50000;Hainaut (le)
7131;Waudrez;56011;Binche;50000;Hainaut (le)
6211;Mellet;52075;Les Bons Villers;50000;Hainaut (le)
6210;Wayaux-Villers-Perwin-Frasnes-lez-Gosselies-Rèves;52075;Les Bons Villers;50000;Hainaut (le)
7800;Ath-Lanquesaint;51004;Ath;50000;Hainaut (le)
7804;Rebaix-Ostiches;51004;Ath;50000;Hainaut (le)
7822;Isières-Meslin-l'Évêque-Ghislenghien;51004;Ath;50000;Hainaut (le)
7823;Gibecq;51004;Ath;50000;Hainaut (le)
7811;Arbre;51004;Ath;50000;Hainaut (le)
7810;Maffle;51004;Ath;50000;Hainaut (le)
7801;Irchonwelz;51004;Ath;50000;Hainaut (le)
7802;Ormeignies;51004;Ath;50000;Hainaut (le)
7812;Moulbaix-Villers-Notre-Dame-Villers-Saint-Amand-Ligne-Houtaing-Mainvault;51004;Ath;50000;Hainaut (le)
7803;Bouvignies;51004;Ath;50000;Hainaut (le)
7000;Mons;53053;Mons;50000;Hainaut (le)
7022;Hyon-Harmignies-Harveng-Nouvelles-Mesvin;53053;Mons;50000;Hainaut (le)
7033;Cuesmes;53053;Mons;50000;Hainaut (le)
7011;Ghlin;53053;Mons;50000;Hainaut (le)
7020;Nimy-Maisières;53053;Mons;50000;Hainaut (le)
7034;Obourg-Saint-Denis;53053;Mons;50000;Hainaut (le)
7021;Havré;53053;Mons;50000;Hainaut (le)
7030;Saint-Symphorien;53053;Mons;50000;Hainaut (le)
7031;Villers-Saint-Ghislain;53053;Mons;50000;Hainaut (le)
7032;Spiennes;53053;Mons;50000;Hainaut (le)
7024;Ciply;53053;Mons;50000;Hainaut (le)
7012;Jemappes-Flénu;53053;Mons;50000;Hainaut (le)
7110;Houdeng-Goegnies-Maurage-Boussoit-Strépy-Bracquegnies-Houdeng-Aimeries;55022;La Louvière;50000;Hainaut (le)
7100;La Louvière-Haine-Saint-Pierre-Haine-Saint-Paul-Saint-Vaast-Trivières;55022;La Louvière;50000;Hainaut (le)
6440;Froid-Chapelle-Fourbechies-Vergnies-Boussu-lez-Walcourt;56029;Froidchapelle;50000;Hainaut (le)
6441;Erpion;56029;Froidchapelle;50000;Hainaut (le)
7300;Boussu;53014;Boussu;50000;Hainaut (le)
7301;Hornu;53014;Boussu;50000;Hainaut (le)
7500;Tournai-Ère-Saint-Maur;57081;Tournai;50000;Hainaut (le)
7548;Warchin;57081;Tournai;50000;Hainaut (le)
7521;Chercq;57081;Tournai;50000;Hainaut (le)
7531;Havinnes;57081;Tournai;50000;Hainaut (le)
7540;Quartes-Melles-Kain-Rumillies;57081;Tournai;50000;Hainaut (le)
7532;Beclers;57081;Tournai;50000;Hainaut (le)
7533;Thimougies;57081;Tournai;50000;Hainaut (le)
7534;Maulde-Barry;57081;Tournai;50000;Hainaut (le)
7538;Vezon;57081;Tournai;50000;Hainaut (le)
7530;Gaurain-Ramecroix;57081;Tournai;50000;Hainaut (le)
7536;Vaulx;57081;Tournai;50000;Hainaut (le)
7506;Willemeau;57081;Tournai;50000;Hainaut (le)
7504;Froidmont;57081;Tournai;50000;Hainaut (le)
7502;Esplechin;57081;Tournai;50000;Hainaut (le)
7522;Lamain-Marquain-Blandain-Hertain;57081;Tournai;50000;Hainaut (le)
7501;Orcq;57081;Tournai;50000;Hainaut (le)
7520;Templeuve-Ramegnies-Chin;57081;Tournai;50000;Hainaut (le)
7503;Froyennes;57081;Tournai;50000;Hainaut (le)
7542;Mont-Saint-Aubert;57081;Tournai;50000;Hainaut (le)
7543;Mourcourt;57081;Tournai;50000;Hainaut (le)
6567;Merbes-le-Château-Merbes-Sainte-Marie-Labuissière-Fontaine-Valmont;56049;Merbes-le-Château;50000;Hainaut (le)
6560;Erquelinnes-Solre-sur-Sambre-Hantes-Wihéries-Montignies-Saint-Christophe-Bersillies-l'Abbaye-Grand-Reng;56022;Erquelinnes;50000;Hainaut (le)
7740;Pecq-Warcoing;57062;Pecq;50000;Hainaut (le)
7742;Hérinnes;57062;Pecq;50000;Hainaut (le)
7743;Obigies-Esquelmes;57062;Pecq;50000;Hainaut (le)
7050;Jurbise-Masnuy-Saint-Jean-Masnuy-Saint-Pierre-Erbis?ul-Herchies-Erbaut;53044;Jurbise;50000;Hainaut (le)
7780;Comines;54010;Comines-Warneton;50000;Hainaut (le)
7784;Bas-Warneton-Warneton;54010;Comines-Warneton;50000;Hainaut (le)
7781;Houthem;54010;Comines-Warneton;50000;Hainaut (le)
7782;Ploegsteert;54010;Comines-Warneton;50000;Hainaut (le)
7880;Flobecq;51019;Flobecq;50000;Hainaut (le)
7060;Soignies-Horrues;55040;Soignies;50000;Hainaut (le)
7062;Naast;55040;Soignies;50000;Hainaut (le)
7061;Thieusies-Casteau;55040;Soignies;50000;Hainaut (le)
7063;Neufvilles-Chaussée-Notre-Dame-Louvignies;55040;Soignies;50000;Hainaut (le)
7890;Ellezelles-Wodecq-Lahamaide;51017;Ellezelles;50000;Hainaut (le)
6240;Farciennes-Pironchamps;52018;Farciennes;50000;Hainaut (le)
7170;Manage-Bois-d'Haine-Fayt-lez-Manage-La Hestre-Bellecourt;52043;Manage;50000;Hainaut (le)
7340;Wasmes-Pâturages-Warquignies;53082;Colfontaine;50000;Hainaut (le)
7070;Le Roeulx-Mignault-Thieu-Gottignies-Ville-sur-Haine;55035;Le R?ulx;50000;Hainaut (le)
7640;Antoing-Maubray-Péronnes;57003;Antoing;50000;Hainaut (le)
7643;Fontenoy;57003;Antoing;50000;Hainaut (le)
7641;Bruyelle;57003;Antoing;50000;Hainaut (le)
7642;Calonne;57003;Antoing;50000;Hainaut (le)
7900;Leuze-Grandmetz;57094;Leuze-en-Hainaut;50000;Hainaut (le)
7903;Chapelle-à-Wattines-Chapelle-à-Oie-Blicquy;57094;Leuze-en-Hainaut;50000;Hainaut (le)
7904;Tourpes-Willaupuis-Pipaix;57094;Leuze-en-Hainaut;50000;Hainaut (le)
7906;Gallaix;57094;Leuze-en-Hainaut;50000;Hainaut (le)
7901;Thieulain;57094;Leuze-en-Hainaut;50000;Hainaut (le)
7190;Écaussinnes-d'Enghien-Marche-lez-Écaussinnes;55050;Écaussinnes;50000;Hainaut (le)
7191;Écaussinnes-Lalaing;55050;Écaussinnes;50000;Hainaut (le)
6220;Fleurus-Lambusart-Wangenies-Heppignies;52021;Fleurus;50000;Hainaut (le)
6224;Wanfercée-Baulet;52021;Fleurus;50000;Hainaut (le)
6221;Saint-Amand;52021;Fleurus;50000;Hainaut (le)
6223;Wagnelée;52021;Fleurus;50000;Hainaut (le)
6222;Brye;52021;Fleurus;50000;Hainaut (le)
7850;Enghien-Marcq-Petit-Enghien;55010;Silly;50000;Hainaut (le)
7830;Silly-Hellebecq-Bassilly-Hoves-Graty-Thoricourt-Fouleng-Gondregnies;55039;Silly;50000;Hainaut (le)
7330;Saint-Ghislain;53070;Saint-Ghislain;50000;Hainaut (le)
7331;Baudour;53070;Saint-Ghislain;50000;Hainaut (le)
7333;Tertre;53070;Saint-Ghislain;50000;Hainaut (le)
7334;Villerot-Hautrage;53070;Saint-Ghislain;50000;Hainaut (le)
7332;Sirault-Neufmaison;53070;Saint-Ghislain;50000;Hainaut (le)
6200;Châtelet-Châtelineau-Bouffioulx;52012;Châtelet;50000;Hainaut (le)
7370;Dour-Blaugies-Wihéries-Élouges;53020;Dour;50000;Hainaut (le)
6140;Fontaine-l'Évêque;52022;Fontaine-l'Évêque;50000;Hainaut (le)
6141;Forchies-la-Marche;52022;Fontaine-l'Évêque;50000;Hainaut (le)
6142;Leernes;52022;Fontaine-l'Évêque;50000;Hainaut (le)
7160;Chapelle-lez-Herlaimont-Godarville-Piéton;52010;Chapelle-lez-Herlaimont;50000;Hainaut (le)
7700;Mouscron-Luingne;54007;Mouscron;50000;Hainaut (le)
7712;Herseaux;54007;Mouscron;50000;Hainaut (le)
7711;Dottignies;54007;Mouscron;50000;Hainaut (le)
6110;Montignies-le-Tilleul;52048;Montigny-le-Tilleul;50000;Hainaut (le)
6111;Landelies;52048;Montigny-le-Tilleul;50000;Hainaut (le)
7620;Bléharies-Guignies-Wez-Velvain-Jollain-Merlin-Hollain;57093;Brunehaut;50000;Hainaut (le)
7623;Rongy;57093;Brunehaut;50000;Hainaut (le)
7621;Lesdain;57093;Brunehaut;50000;Hainaut (le)
7624;Howardries;57093;Brunehaut;50000;Hainaut (le)
7622;Laplaigne;57093;Brunehaut;50000;Hainaut (le)
6470;Sivry-Grandrieu-Sautin-Rance-Montbliart;56088;Sivry-Rance;50000;Hainaut (le)
7320;Bernissart;51009;Bernissart;50000;Hainaut (le)
7321;Harchies-Blaton;51009;Bernissart;50000;Hainaut (le)
7322;Ville-Pommeroeul-Pommer?ul;51009;Bernissart;50000;Hainaut (le)
7350;Hensies-Montr?ul-sur-Haine-Thulin-Hainin;53039;Hensies;50000;Hainaut (le)
7860;Lessines;55023;Lessines;50000;Hainaut (le)
7864;Deux-Acren;55023;Lessines;50000;Hainaut (le)
7866;Bois-de-Lessines-Ollignies;55023;Lessines;50000;Hainaut (le)
7861;Papignies-Wannebecq;55023;Lessines;50000;Hainaut (le)
7862;Ogy;55023;Lessines;50000;Hainaut (le)
7863;Ghoy;55023;Lessines;50000;Hainaut (le)
7610;Rumes;57072;Rumes;50000;Hainaut (le)
7618;Taintignies;57072;Rumes;50000;Hainaut (le)
7611;La Glanerie;57072;Rumes;50000;Hainaut (le)
7090;Braine-le-Comte-Hennuyères-Ronquières-Henripont-Petit-Roeulx-lez-Braine-Steenkerque;55004;Braine-le-Comte;50000;Hainaut (le)
6500;Beaumont-Barbençon-Renlies-Solre-Saint-Géry-Leugnies-Leval-Chaudeville-Thirimont;56005;Beaumont;50000;Hainaut (le)
6511;Strée;56005;Beaumont;50000;Hainaut (le)
6460;Chimay-Saint-Remy-Villers-la-Tour-Salles-Bailièvre-Robechies;56016;Chimay;50000;Hainaut (le)
6461;Virelles;56016;Chimay;50000;Hainaut (le)
6462;Vaulx;56016;Chimay;50000;Hainaut (le)
6463;Lompret;56016;Chimay;50000;Hainaut (le)
6464;Baileux-L'Escaillère-Rièzes-Bourlers-Forges;56016;Chimay;50000;Hainaut (le)
6180;Courcelles;52015;Courcelles;50000;Hainaut (le)
6182;Souvret;52015;Courcelles;50000;Hainaut (le)
6183;Trazegnies;52015;Courcelles;50000;Hainaut (le)
6181;Gouy-lez-Piéton;52015;Courcelles;50000;Hainaut (le)
7120;Estinnes-au-Mont-Estinnes-au-Val-Vellereille-les-Brayeux-Peissant-Fauroeulx-Croix-lez-Rouveroy-Rouveroy-Haulchin-Vellereille-le-Sec;56085;Estinnes;50000;Hainaut (le)
7380;Quiévrain-Baisieux;53068;Quiévrain;50000;Hainaut (le)
7382;Audregnies;53068;Quiévrain;50000;Hainaut (le)
7940;Brugelette-Cambron-Casteau;51012;Brugelette;50000;Hainaut (le)
7943;Gages;51012;Brugelette;50000;Hainaut (le)
7942;Mévergnies-lez-Lens;51012;Brugelette;50000;Hainaut (le)
7941;Attre;51012;Brugelette;50000;Hainaut (le)
7140;Morlanwelz-Mariemont;56087;Morlanwelz;50000;Hainaut (le)
7141;Carnières-Mont-Sainte-Aldegonde;56087;Morlanwelz;50000;Hainaut (le)
7180;Seneffe;52063;Seneffe;50000;Hainaut (le)
7181;Feluy-Arquennes-Petit-Roeulx-lez-Nivelles-Familleureux;52063;Seneffe;50000;Hainaut (le)
7040;Quévy-le-Petit-Quévy-le-Grand-Goegnies-Chaussée-Aulnois-Blaregnies-Genly-Bougnies-Asquillies;53084;Quévy;50000;Hainaut (le)
7041;Havay-Givry;53084;Quévy;50000;Hainaut (le)
7750;Amougies-Russeignies-Anseroeul-Orroir;57095;Mont-de-l'Enclus;50000;Hainaut (le)
6250;Aiseau-Presles-Pont-de-Loup-Roselies;52074;Aiseau-Presles;50000;Hainaut (le)
7911;Frasnes-lez-Buissenal-?udeghien-Buissenal-Moustier-Hacquegnies-Herquegies-Montr?ul-au-Bois;51065;Frasnes-lez-Anvaing;50000;Hainaut (le)
7910;Forest-Anvaing-Cordes-Arc-Ainières-Wattripont;51065;Frasnes-lez-Anvaing;50000;Hainaut (le)
7912;Dergneau-Saint-Sauveur;51065;Frasnes-lez-Anvaing;50000;Hainaut (le)
7390;Quaregnon-Wasmuel;53065;Quaregnon;50000;Hainaut (le)
7760;Celles-Molenbaix-Pottes-Escanaffles-Velaines-Popuelles;57018;Celles;50000;Hainaut (le)
7387;Roisin-Angreau-Angre-Marchipont-Onnezies-Montignies-sur-Roc-Autreppe-Fayt-le-Franc-Athis-Erquennes;53083;Honnelles;50000;Hainaut (le)
6540;Lobbes-Mont-Sainte-Geneviève;56044;Lobbes;50000;Hainaut (le)
6542;Sars-la-Buissière;56044;Lobbes;50000;Hainaut (le)
6543;Bienne-lez-Happart;56044;Lobbes;50000;Hainaut (le)
5660;Couvin-Petigny-Brûly-Petite-Chapelle-Cul-des-Sarts-Brûly-de-Pesche-Presgaux-Gonrieux-Pesche-Dailly-Aublain-Boussu-en-Fagne-Frasnes-Mariembourg;93014;Couvin;90000;Namur
5370;Havelange-Verlée-Barvaux-Condroz-Porcheresse-Jeneffe-Flostoy;91064;Havelange;90000;Namur
5374;Maffe;91064;Havelange;90000;Namur
5372;Méan;91064;Havelange;90000;Namur
5376;Miécret;91064;Havelange;90000;Namur
5140;Sombreffe-Tongrinne-Boignée-Ligny;92114;Sombreffe;90000;Namur
5580;Rochefort-Jemelle-Wavreille-Han-sur-Lesse-Éprave-Lessive-Ave-et-Auffe-Lavaux-Sainte-Anne-Villers-sur-Lesse-Mont-Gauthier-Buissonville;91114;Rochefort;90000;Namur
5520;Onhaye-Anthée;91103;Onhaye;90000;Namur
5524;Gerin;91103;Onhaye;90000;Namur
5521;Serville;91103;Onhaye;90000;Namur
5522;Falaën;91103;Onhaye;90000;Namur
5523;Sommière-Weillen;91103;Onhaye;90000;Namur
5360;Hamois-Natoye;91059;Hamois;90000;Namur
5362;Achet;91059;Hamois;90000;Namur
5361;Mohiville-Scy;91059;Hamois;90000;Namur
5363;Emptinne;91059;Hamois;90000;Namur
5364;Schaltin;91059;Hamois;90000;Namur
5340;Gesves-Faulx-les-Tombes-Mozet-Haltinne-Sorée;92054;Gesves;90000;Namur
5377;Somme-Leuze-Noiseux-Baillonville-Waillet-Hogne-Sinsin-Nettinne-Heure-Bonsin;91120;Somme-Leuze;90000;Namur
5550;Vresse-Membre-Laforêt-Alle-Mouzaive-Chairière-Sugny-Bagimont-Pussemange-Bohan-Orchimont-Nafraiture;91143;Vresse-sur-Semois;90000;Namur
5590;Ciney-Pessoux-Serinchamps-Leignon-Chevetogne-Conneux-Achêne-Sovet-Braibant;91030;Ciney;90000;Namur
5170;Profondeville-Lustin-Rivière-Arbre-Lesve-Bois-de-Villers;92101;Profondeville;90000;Namur
5555;Bièvre-Graide-Naomé-Oizy-Baillamont-Gros-Fays-Cornimont-Monceau-en-Ardenne-Bellefontaine-Petit-Fays;91015;Bièvre;90000;Namur
5060;Auvelais-Arsimont-Falisolle-Tamines-Moignelée-Velaine-Keumiée;92137;Sambreville;90000;Namur
5150;Floreffe-Franière-Soye-Floriffoux;92045;Floreffe;90000;Namur
5600;Philippeville-Vodecée-Villers-le-Gambon-Franchimont-Surice-Omezée-Romedenne-Merlemont-Sart-en-Fagne-Villers-en-Fagne-Fagnolle-Roly-Sautour-Samart-Neuville-Jamiolle-Jamagne;93056;Philippeville;90000;Namur
5575;Gedinne-Louette-Saint-Denis-Houdremont-Louette-Saint-Pierre-Rienne-Willerzie-Bourseigne-Neuve-Bourseigne-Vieille-Vencimont-Sart-Custinne-Patignies-Malvoisin;91054;Gedinne;90000;Namur
5540;Hastière-Lavaux-Waulsort-Hermeton-sur-Meuse;91142;Hastière;90000;Namur
5541;Hastière-par-delà;91142;Hastière;90000;Namur
5542;Blaimont;91142;Hastière;90000;Namur
5543;Heer;91142;Hastière;90000;Namur
5544;Agimont;91142;Hastière;90000;Namur
5330;Assesse-Maillen-Sart-Bernard;92006;Assesse;90000;Namur
5332;Crupet;92006;Assesse;90000;Namur
5336;Courrière;92006;Assesse;90000;Namur
5333;Sorinne-la-Longue;92006;Assesse;90000;Namur
5334;Florée;92006;Assesse;90000;Namur
5350;Ohey-Évelette;92097;Ohey;90000;Namur
5351;Haillot;92097;Ohey;90000;Namur
5352;Perwez;92097;Ohey;90000;Namur
5353;Goesnes;92097;Ohey;90000;Namur
5354;Jallet;92097;Ohey;90000;Namur
5530;Yvoir-Évrehailles-Houx-Godinne-Mont-Durnal-Spontin-Dorinne-Purnode;91141;Yvoir;90000;Namur
5560;Houyet-Mesnil-Église-Finnevaux-Mesnil-Saint-Blaise-Hulsonniaux-Ciergnon;91072;Houyet;90000;Namur
5563;Hour;91072;Houyet;90000;Namur
5561;Celles;91072;Houyet;90000;Namur
5562;Custinne;91072;Houyet;90000;Namur
5564;Wanlin;91072;Houyet;90000;Namur
5630;Cerfontaine-Soumoy-Silenrieux-Daussois-Villers-Deux-Églises-Senzeille;93010;Cerfontaine;90000;Namur
5670;Olloy-sur-Viroin-Vierves-sur-Viroin-Treignes-Mazée-Le Mesnil-Oignies-en-Thiérache-Nismes-Dourbes;93090;Viroinval;90000;Namur
5570;Beauraing-Javingue-Winenne-Felenne-Dion-Feschaux-Baronville-Honnay-Vonêche-Wancennes;91013;Beauraing;90000;Namur
5571;Wiesme;91013;Beauraing;90000;Namur
5573;Martouzin-Neuville;91013;Beauraing;90000;Namur
5572;Focant;91013;Beauraing;90000;Namur
5576;Froidfontaine;91013;Beauraing;90000;Namur
5574;Pondrôme;91013;Beauraing;90000;Namur
5650;Walcourt-Pry-Fontenelle-Castillon-Clermont-Chastrès-Fraire-Yves-Gomezée-Vogenée;93088;Walcourt;90000;Namur
5651;Rognée-Berzée-Thy-le-Château-Gourdinne-Somzée-Tarcienne-Laneffe;93088;Walcourt;90000;Namur
5080;Émines-Rhisnes-Villers-lez-Heest-Warisoulx;92141;La Bruyère;90000;Namur
5081;Bovesse-Saint-Denis-Meux;92141;La Bruyère;90000;Namur
5680;Doische-Vaucelles-Niverlée-Matagne-la-Petite-Matagne-la-Grande-Romerée-Gimnée-Vodelée-Soulme-Gochenée;93018;Doische;90000;Namur
5380;Forville-Bierwart-Pontillas-Hingeon-Noville-les-Bois-Franc-Waret-Marchovelette-Tillier-Cortil-Wodon-Hemptinne;92138;Fernelmont;90000;Namur
5310;Éghezée-Longchamps-Upigny-Mehaigne-Noville-sur-Méhaigne-Bolinne-Taviers-Boneffe-Branchon-Hanret-Leuze-Waret-la-Chaussée-Dhuy-Saint-Germain-Liernu-Aische-en-Refail;92035;Éghezée;90000;Namur
5537;Anhée-Warnant-Haut-le-Wastia-Sosoye-Denée-Bioul-Annevoie-Rouillon;91005;Anhée;90000;Namur
5190;Jemeppe-Balâtre-Saint-Martin-Onoz-Spy-Moustier-Mornimont-Ham-sur-Sambre;92140;Jemeppe-sur-Sambre;90000;Namur
5030;Gembloux-Ernage-Sauvenière-Lonzée-Grand-Manil-Beuzet;92142;Gembloux;90000;Namur
5031;Grand-Leez;92142;Gembloux;90000;Namur
5032;Isnes-Bossière-Mazy-Bothey-Corroy-le-Château;92142;Gembloux;90000;Namur
5500;Dinant-Bouvignes-sur-Meuse-Anseremme-Dréhance-Furfooz-Falmagne-Falmignoul;91034;Dinant;90000;Namur
5501;Lisogne;91034;Dinant;90000;Namur
5502;Thynes;91034;Dinant;90000;Namur
5503;Sorinnes;91034;Dinant;90000;Namur
5504;Foy-Notre-Dame;91034;Dinant;90000;Namur
5300;Andenne-Coutisse-Bonneville-Thon-Maizeret-Namêche-Sclayn-Vezin-Landenne-Seilles;92003;Andenne;90000;Namur
5000;Namur-Beez;92094;Namur;90000;Namur
5100;Jambes-Wépion-Wierde-Naninne-Dave;92094;Namur;90000;Namur
5020;Malonne-Flawinne-Temploux-Suarlée-Daussoulx-Vedrin-Champion;92094;Namur;90000;Namur
5001;Belgrade;92094;Namur;90000;Namur
5002;Saint-Servais;92094;Namur;90000;Namur
5004;Bouge;92094;Namur;90000;Namur
5003;Saint-Marc;92094;Namur;90000;Namur
5022;Cognelée;92094;Namur;90000;Namur
5024;Gelbressée-Marche-les-Dames;92094;Namur;90000;Namur
5021;Boninne;92094;Namur;90000;Namur
5101;Lives-sur-Meuse-Loyers-Erpent;92094;Namur;90000;Namur
5620;Florennes-Corenne-Flavion-Morville-Rosée-Hemptinne-Saint-Aubin;93022;Florennes;90000;Namur
5621;Morialmé-Thy-le-Bauduin-Hanzinelle-Hanzinne;93022;Florennes;90000;Namur
5640;Mettet-Saint-Gérard-Graux-Biesmerée-Oret-Biesme;92087;Mettet;90000;Namur
5641;Furnaux;92087;Mettet;90000;Namur
5644;Ermeton-sur-Biert;92087;Mettet;90000;Namur
5646;Stave;92087;Mettet;90000;Namur
5070;Fosses-la-Ville-Vitrival-Sart-Eustache-Le Roux-Aisemont-Sart-Saint-Laurent;92048;Fosses-la-Ville;90000;Namur
4460;Hollogne-aux-Pierres-Grâce-Berleur-Horion-Hozémont-Velroux-Bierset;62118;Grâce-Hollogne;60000;Liège
4670;Trembleur-Mortier;62119;Blegny;60000;Liège
4671;Barchon-Saive-Housse;62119;Blegny;60000;Liège
4672;Saint-Remy;62119;Blegny;60000;Liège
4840;Welkenraedt;63084;Welkenraedt;60000;Liège
4841;Henri-Chapelle;63084;Welkenraedt;60000;Liège
4219;Wasseiges-Ambresin-Meeffe-Acosse;64075;Wasseiges;60000;Liège
4537;Verlaine-Chapon-Seraing-Seraing-le-Château;61063;Verlaine;60000;Liège
4791;Thommen;63087;Burg-Reuland;60000;Liège
4790;Reuland;63087;Burg-Reuland;60000;Liège
4770;Amel-Meyerode;63001;Amblève;60000;Liège
4771;Heppenbach;63001;Amblève;60000;Liège
4970;Stavelot-Francorchamps;63073;Stavelot;60000;Liège
4860;Pepinster-Cornesse-Wegnez;63058;Pepinster;60000;Liège
4861;Soiron;63058;Pepinster;60000;Liège
4260;Braives-Fallais-Fumal-Ville-en-Hesbaye-Ciplet-Avennes;64015;Braives;60000;Liège
4263;Tourinne;64015;Braives;60000;Liège
4261;Latinne;64015;Braives;60000;Liège
4360;Bergilers-Grandville-Lens-sur-Geer-Oreye-Otrange;64056;Oreye;60000;Liège
4577;Modave-Vierset-Barse-Strée-Outrelouxhe;61041;Modave;60000;Liège
4601;Argenteau;62108;Visé;60000;Liège
4602;Cheratte;62108;Visé;60000;Liège
4910;Theux-Polleur-La Reid;63076;Theux;60000;Liège
4317;Celles-Borlez-Les Waleffes-Viemme-Aineffe;64076;Faimes;60000;Liège
4160;Anthisnes;61079;Anthisnes;60000;Liège
4162;Hody;61079;Anthisnes;60000;Liège
4163;Tavier;61079;Anthisnes;60000;Liège
4161;Villers-aux-Tours;61079;Anthisnes;60000;Liège
4357;Donceel-Limont-Jeneffe-Haneffe;64023;Donceel;60000;Liège
4217;Héron-Lavoir-Waret-l'Évêque;61028;Héron;60000;Liège
4218;Couthuin;61028;Héron;60000;Liège
4190;Ferrières-Vieuxville-My-Xhoris-Werbomont;61019;Ferrières;60000;Liège
4130;Esneux-Tilff;62032;Esneux;60000;Liège
4180;Hamoir-Comblain-Fairon;61024;Hamoir;60000;Liège
4181;Filot;61024;Hamoir;60000;Liège
4620;Fléron;62038;Fléron;60000;Liège
4621;Retinne;62038;Fléron;60000;Liège
4623;Magnée;62038;Fléron;60000;Liège
4624;Romsée;62038;Fléron;60000;Liège
4760;Manderfeld-Büllingen;63012;Bullange;60000;Liège
4761;Rocherath;63012;Bullange;60000;Liège
4000;Liège-Glain-Rocourt;62063;Liège;60000;Liège
4020;Wandre-Jupille-sur-Meuse-Bressoux;62063;Liège;60000;Liège
4030;Grivegnée;62063;Liège;60000;Liège
4032;Chênée;62063;Liège;60000;Liège
4031;Angleur;62063;Liège;60000;Liège
4590;Ouffet-Warzée-Ellemelle;61048;Ouffet;60000;Liège
4900;Spa;63072;Spa;60000;Liège
4610;Beyne-Heusay-Queue-du-Bois-Bellaire;62015;Beyne-Heusay;60000;Liège
4690;Bassenge-Roclenge-sur-Geer-Boirs-Glons-Wonck-Ében-Émael;62011;Bassenge;60000;Liège
4960;Malmedy-Bevercé-Bellevaux-Ligneuville;63049;Malmedy;60000;Liège
4890;Thimister-Clermont;63089;Thimister-Clermont;60000;Liège
4560;Clavier-Ocquier-Bois-et-Borsu-Les Avins-Pailhe-Terwagne;61012;Clavier;60000;Liège
4802;Heusy;63079;Verviers;60000;Liège
4800;Verviers-Ensival-Lambermont-Petit-Rechain;63079;Verviers;60000;Liège
4801;Stembert;63079;Verviers;60000;Liège
4040;Herstal;62051;Herstal;60000;Liège
4041;Vottem-Milmort;62051;Herstal;60000;Liège
4042;Liers;62051;Herstal;60000;Liège
4837;Baelen-Membach;63004;Baelen;60000;Liège
4470;Saint-Georges-sur-Meuse;64065;Saint-Georges-sur-Meuse;60000;Liège
4050;Chaudfontaine;62022;Chaudfontaine;60000;Liège
4052;Beaufays;62022;Chaudfontaine;60000;Liège
4053;Embourg;62022;Chaudfontaine;60000;Liège
4051;Vaux-sous-Chèvremont;62022;Chaudfontaine;60000;Liège
4450;Juprelle-Slins-Lantin;62060;Juprelle;60000;Liège
4458;Fexhe-Slins;62060;Juprelle;60000;Liège
4453;Villers-Saint-Siméon;62060;Juprelle;60000;Liège
4451;Voroux-lez-Liers;62060;Juprelle;60000;Liège
4452;Wihogne-Paifve;62060;Juprelle;60000;Liège
4570;Marchin-Vyle-et-Tharoul;61039;Marchin;60000;Liège
4750;Bütgenbach-Elsenborn;63013;Butgenbach;60000;Liège
4650;Herve-Chaineux-Grand-Rechain-Julémont;63035;Herve;60000;Liège
4654;Charneux;63035;Herve;60000;Liège
4651;Battice;63035;Herve;60000;Liège
4652;Xhendelesse;63035;Herve;60000;Liège
4653;Bolland;63035;Herve;60000;Liège
4140;Sprimont-Rouvreux-Dolembreux-Gomzé-Andoumont;62100;Sprimont;60000;Liège
4141;Louveigné;62100;Sprimont;60000;Liège
4287;Lincent-Pellaines-Racour;64047;Lincent;60000;Liège
4607;Dalhem-Feneur-Bombaye-Berneau-Mortroux;62027;Dalhem;60000;Liège
4608;Warsage-Neufchâteau;62027;Dalhem;60000;Liège
4606;Saint-André;62027;Dalhem;60000;Liège
4987;Stoumont-La Gleize-Rahier-Chevron-Lorcé;63075;Stoumont;60000;Liège
4980;Fosse-Wanne;63086;Trois-Ponts;60000;Liège
4983;Basse-Bodeux;63086;Trois-Ponts;60000;Liège
4350;Remicourt-Lamine-Pousset-Momalle;64063;Remicourt;60000;Liège
4351;Hodeige;64063;Remicourt;60000;Liège
4530;Villers-le-Bouillet-Warnant-Dreye-Vieux-Waleffe-Vaux-et-Borset-Fize-Fontaine;61068;Villers-le-Bouillet;60000;Liège
4870;Forêt-Fraipont-Nessonvaux;62122;Olne;60000;Liège
4877;Olne;63057;Olne;60000;Liège
4480;Engis-Clermont-sous-Huy-Hermalle-sous-Huy;61080;Engis;60000;Liège
4780;Sankt Vith-Recht;63067;Saint-Vith;60000;Liège
4782;Schönberg;63067;Saint-Vith;60000;Liège
4783;Lommersweiler;63067;Saint-Vith;60000;Liège
4784;Crombach;63067;Saint-Vith;60000;Liège
4845;Jalhay-Sart;63038;Jalhay;60000;Liège
4420;Saint-Nicolas-Tilleur-Montegnée;62093;Saint-Nicolas;60000;Liège
4121;Neuville-en-Condroz;62121;Neupré;60000;Liège
4122;Plainevaux;62121;Neupré;60000;Liège
4120;Rotheux-Rimière-Éhein;62121;Neupré;60000;Liège
4720;Kelmis;63040;La Calamine;60000;Liège
4721;Neu-Moresnet;63040;La Calamine;60000;Liège
4728;Hergenrath;63040;La Calamine;60000;Liège
4100;Seraing-Boncelles;62096;Seraing;60000;Liège
4101;Jemeppe;62096;Seraing;60000;Liège
4102;Ougrée;62096;Seraing;60000;Liège
4820;Dison;63020;Dison;60000;Liège
4821;Andrimont;63020;Dison;60000;Liège
4210;Burdinne-Hannêche-Lamontzée-Oteppe-Marneffe;61010;Burdinne;60000;Liège
4830;Limbourg;63046;Limbourg;60000;Liège
4831;Bilstain;63046;Limbourg;60000;Liège
4834;Goé;63046;Limbourg;60000;Liège
4280;Hannut-Avernas-le-Bauduin-Bertrée-Cras-Avernas-Poucet-Abolens-Blehen-Lens-Saint-Remy-Villers-le-Peuplier-Crehen-Trognée-Avin-Moxhe-Thisnes-Merdorp-Grand-Hallet-Petit-Hallet-Wansin;64034;Hannut;60000;Liège
4851;Gemmenich-Sippenaeken;63088;Plombières;60000;Liège
4850;Moresnet-Montzen;63088;Plombières;60000;Liège
4852;Hombourg;63088;Plombières;60000;Liège
4250;Geer-Boëlhe-Hollogne-sur-Geer-Lens-Saint-Servais;64029;Geer;60000;Liège
4253;Darion;64029;Geer;60000;Liège
4252;Omal;64029;Geer;60000;Liège
4254;Ligney;64029;Geer;60000;Liège
4257;Berloz-Rosoux-Crenwick-Corswarem;64008;Berloz;60000;Liège
4500;Huy-Ben-Ahin-Tihange;61031;Huy;60000;Liège
4880;Aubel;63003;Aubel;60000;Liège
4700;Eupen;63023;Eupen;60000;Liège
4701;Kettenis;63023;Eupen;60000;Liège
4990;Lierneux-Bra-Arbrefontaine;63045;Lierneux;60000;Liège
4340;Awans-Fooz-Villers-l'Évêque-Othée;62006;Awans;60000;Liège
4342;Hognoul;62006;Awans;60000;Liège
4680;Oupeye-Hermée;62079;Oupeye;60000;Liège
4684;Haccourt;62079;Oupeye;60000;Liège
4681;Hermalle-sous-Argenteau;62079;Oupeye;60000;Liège
4683;Vivegnis;62079;Oupeye;60000;Liège
4682;Houtain-Saint-Siméon-Heure-le-Romain;62079;Oupeye;60000;Liège
4347;Freloux-Fexhe-le-Haut-Clocher-Noville-Roloux-Voroux-Goreux;64025;Fexhe-le-Haut-Clocher;60000;Liège
4557;Soheit-Tinlot-Ramelot-Abée-Fraiture-Seny;61081;Tinlot;60000;Liège
4430;Ans;62003;Ans;60000;Liège
4431;Loncin;62003;Ans;60000;Liège
4432;Alleur-Xhendremael;62003;Ans;60000;Liège
4367;Crisnée-Fize-le-Marsal-Kemexhe-Odeur-Thys;64021;Crisnée;60000;Liège
4300;Waremme-Oleye-Lantremange-Bleret-Bovenistier-Grand-Axhe-Bettincourt;64074;Waremme;60000;Liège
4630;Soumagne-Ayeneux-Micheroux;62099;Soumagne;60000;Liège
4633;Melen;62099;Soumagne;60000;Liège
4632;Cerexhe-Heuseux;62099;Soumagne;60000;Liège
4631;Évegnée-Tignée;62099;Soumagne;60000;Liège
4540;Amay-Flône-Ombret-Rawsa-Ampsin-Jehay-Bodegnée;61003;Amay;60000;Liège
4170;Comblain-au-Pont;62026;Comblain-au-Pont;60000;Liège
4171;Poulseur;62026;Comblain-au-Pont;60000;Liège
4400;Flémalle-Grande-Flémalle-Haute-Chokier-Ivoz-Ramet-Awirs-Gleixhe-Mons-lez-Liège;62120;Flémalle;60000;Liège
4710;Lontzen;63048;Lontzen;60000;Liège
4711;Walhorn;63048;Lontzen;60000;Liège
4520;Wanze-Bas-Oha-Moha-Huccorgne-Vinalmont-Antheit;61072;Wanze;60000;Liège
4730;Raeren-Hauset;63061;Raeren;60000;Liège
4731;Eynatten;63061;Raeren;60000;Liège
4920;Aywaille-Sougné-Remouchamps-Harzé-Ernonheid;62009;Aywaille;60000;Liège
4550;Nandrin-Villers-le-Temple-Yernée-Fraineux-Saint-Séverin;61043;Nandrin;60000;Liège
4950;Waimes-Robertville-Faymonville;63080;Waimes;60000;Liège
6850;Paliseul-Offagne-Carlsbourg;84050;Paliseul;80000;Luxembourg
6852;Opont-Maissin;84050;Paliseul;80000;Luxembourg
6853;Framont;84050;Paliseul;80000;Luxembourg
6856;Fays-les-Veneurs;84050;Paliseul;80000;Luxembourg
6851;Nollevaux;84050;Paliseul;80000;Luxembourg
6960;Grandmenil-Harre-Vaux-Chavanne-Malempré-Odeigne-Dochamps;83055;Manhay;80000;Luxembourg
6660;Houffalize-Nadrin;82014;Houffalize;80000;Luxembourg
6663;Mabompré;82014;Houffalize;80000;Luxembourg
6666;Wibrin;82014;Houffalize;80000;Luxembourg
6661;Tailles-Mont;82014;Houffalize;80000;Luxembourg
6662;Tavigny;82014;Houffalize;80000;Luxembourg
6929;Daverdisse-Porcheresse-Gembes-Haut-Fays;84016;Daverdisse;80000;Luxembourg
6687;Bertogne;82005;Bertogne;80000;Luxembourg
6688;Longchamps;82005;Bertogne;80000;Luxembourg
6686;Flamierge;82005;Bertogne;80000;Luxembourg
6840;Neufchâteau-Longlier-Hamipré-Grapfontaine-Tournay-Grandvoir;84043;Neufchâteau;80000;Luxembourg
6800;Libramont-Bras-Saint-Pierre-Recogne-Freux-Sainte-Marie-Chevigny-Moircy-Remagne;84077;Libramont-Chevigny;80000;Luxembourg
6740;Étalle-Sainte-Marie-Villers-sur-Semois;85009;Étalle;80000;Luxembourg
6741;Vance;85009;Étalle;80000;Luxembourg
6742;Chantemelle;85009;Étalle;80000;Luxembourg
6743;Buzenol;85009;Étalle;80000;Luxembourg
6987;Rendeux-Beffe-Marcourt-Hodister;83044;Rendeux;80000;Luxembourg
6870;Saint-Hubert-Vesqueville-Hatrival-Arville-Awenne-Mirwart;84059;Saint-Hubert;80000;Luxembourg
6640;Vaux-lez-Rosières-Nives-Morhet-Hompré-Sibret;82036;Vaux-sur-Sûre;80000;Luxembourg
6642;Juseret;82036;Vaux-sur-Sûre;80000;Luxembourg
6730;Tintigny-Bellefontaine-Saint-Vincent-Rossignol;85039;Tintigny;80000;Luxembourg
6880;Bertrix-Jehonville-Orgeo-Cugnon-Auby-sur-Semois;84009;Bertrix;80000;Luxembourg
6600;Bastogne-Wardin-Villers-la-Bonne-Eau-Noville-Longvilly;82003;Bastogne;80000;Luxembourg
6860;Léglise-Ébly-Witry-Mellier-Assenois;84033;Léglise;80000;Luxembourg
6980;La Roche-en-Ardenne-Beausaint;83031;La Roche-en-Ardenne;80000;Luxembourg
6982;Samrée;83031;La Roche-en-Ardenne;80000;Luxembourg
6983;Ortho;83031;La Roche-en-Ardenne;80000;Luxembourg
6984;Hives;83031;La Roche-en-Ardenne;80000;Luxembourg
6986;Halleux;83031;La Roche-en-Ardenne;80000;Luxembourg
6747;Saint-Léger-Châtillon-Meix-le-Tige;85034;Saint-Léger;80000;Luxembourg
6920;Wellin-Sohier;84075;Wellin;80000;Luxembourg
6922;Halma;84075;Wellin;80000;Luxembourg
6924;Lomprez;84075;Wellin;80000;Luxembourg
6921;Chanly;84075;Wellin;80000;Luxembourg
6680;Tillet-Amberloup;82038;Sainte-Ode;80000;Luxembourg
6681;Lavacherie;82038;Sainte-Ode;80000;Luxembourg
6720;Habay-la-Neuve-Hachy;85046;Habay;80000;Luxembourg
6723;Habay-la-Vieille;85046;Habay;80000;Luxembourg
6724;Houdemont-Rulles;85046;Habay;80000;Luxembourg
6721;Anlier;85046;Habay;80000;Luxembourg
6780;Messancy-Wolkrange-Hondelange;81015;Messancy;80000;Luxembourg
6781;Sélange;81015;Messancy;80000;Luxembourg
6782;Habergy;81015;Messancy;80000;Luxembourg
6887;Herbeumont-Saint-Médard-Straimont;84029;Herbeumont;80000;Luxembourg
6820;Florenville-Fontenoille-Sainte-Cécile-Muno;85011;Florenville;80000;Luxembourg
6823;Villers-devant-Orval;85011;Florenville;80000;Luxembourg
6824;Chassepierre;85011;Florenville;80000;Luxembourg
6821;Lacuisine;85011;Florenville;80000;Luxembourg
6890;Libin-Villance-Smuid-Ochamps-Anloy-Transinne-Redu;84035;Libin;80000;Luxembourg
6637;Fauvillers-Tintange-Hollange;82009;Fauvillers;80000;Luxembourg
6750;Musson-Mussy-la-Ville;85026;Musson;80000;Luxembourg
6997;Érezée-Amonines-Soy-Mormont;83013;Érezée;80000;Luxembourg
6671;Bovigny;82037;Gouvy;80000;Luxembourg
6672;Beho;82037;Gouvy;80000;Luxembourg
6670;Limerlé;82037;Gouvy;80000;Luxembourg
6673;Cherain;82037;Gouvy;80000;Luxembourg
6674;Montleban;82037;Gouvy;80000;Luxembourg
6940;Durbuy-Grandhan-Septon-Barvaux-Wéris;83012;Durbuy;80000;Luxembourg
6941;Tohogne-Borlon-Bende-Bomal-Izier-Villers-Sainte-Gertrude-Heyd;83012;Durbuy;80000;Luxembourg
6767;Dampicourt-Harnoncourt-Lamorteau-Torgny;85047;Rouvroy;80000;Luxembourg
6690;Vielsalm-Bihain;82032;Vielsalm;80000;Luxembourg
6692;Petit-Thier;82032;Vielsalm;80000;Luxembourg
6698;Grand-Halleux;82032;Vielsalm;80000;Luxembourg
6717;Attert-Tontelange-Thiaumont-Nobressart-Nothomb;81003;Attert;80000;Luxembourg
6950;Nassogne-Harsin;83040;Nassogne;80000;Luxembourg
6953;Masbourg-Ambly-Lesterny-Forrières;83040;Nassogne;80000;Luxembourg
6952;Grune;83040;Nassogne;80000;Luxembourg
6951;Bande;83040;Nassogne;80000;Luxembourg
6970;Tenneville;83049;Tenneville;80000;Luxembourg
6971;Champlon;83049;Tenneville;80000;Luxembourg
6972;Erneuville;83049;Tenneville;80000;Luxembourg
6769;Meix-devant-Virton-Robelmont-Villers-la-Loue-Sommethonne-Gérouville;85024;Meix-devant-Virton;80000;Luxembourg
6760;Virton-Èthe-Ruette-Bleid;85045;Virton;80000;Luxembourg
6761;Latour;85045;Virton;80000;Luxembourg
6762;Saint-Mard;85045;Virton;80000;Luxembourg
6830;Bouillon-Rochehaut-Poupehan-Les Hayons;84010;Bouillon;80000;Luxembourg
6838;Corbion;84010;Bouillon;80000;Luxembourg
6832;Sensenruth;84010;Bouillon;80000;Luxembourg
6831;Noirefontaine;84010;Bouillon;80000;Luxembourg
6836;Dohan;84010;Bouillon;80000;Luxembourg
6833;Ucimont-Vivy;84010;Bouillon;80000;Luxembourg
6834;Bellevaux;84010;Bouillon;80000;Luxembourg
6630;Martelange;81013;Martelange;80000;Luxembourg
6990;Hotton-Hampteau-Marenne-Fronville;83028;Hotton;80000;Luxembourg
6810;Chiny-Izel-Jamoigne;85007;Chiny;80000;Luxembourg
6812;Suxy;85007;Chiny;80000;Luxembourg
6811;Les Bulles;85007;Chiny;80000;Luxembourg
6813;Termes;85007;Chiny;80000;Luxembourg
6927;Tellin-Bure-Resteigne-Grupont;84068;Tellin;80000;Luxembourg
6900;Marche-en-Famenne-Waha-Aye-Hargimont-On-Humain-Roy;83034;Marche-en-Famenne;80000;Luxembourg
6790;Aubange;81004;Aubange;80000;Luxembourg
6791;Athus;81004;Aubange;80000;Luxembourg
6792;Halanzy-Rachecourt;81004;Aubange;80000;Luxembourg
6700;Arlon-Heinsch-Bonnert-Toernich;81001;Arlon;80000;Luxembourg
6706;Autelbas;81001;Arlon;80000;Luxembourg
6704;Guirsch;81001;Arlon;80000;Luxembourg
2910;Essen;11016;Essen;10000;Antwerpen
2150;Borsbeek;11007;Borsbeek;10000;Antwerpen
2070;Zwijndrecht-Burcht;11056;Zwijndrecht;10000;Antwerpen
2920;Kalmthout;11022;Kalmthout;10000;Antwerpen
2580;Putte-Beerzel;12029;Putte;10000;Antwerpen
2800;Mechelen-Walem;12025;Mechelen;10000;Antwerpen
2811;Hombeek-Leest;12025;Mechelen;10000;Antwerpen
2801;Heffen;12025;Mechelen;10000;Antwerpen
2812;Muizen;12025;Mechelen;10000;Antwerpen
2860;Sint-Katelijne-Waver;12035;Sint-Katelijne-Waver;10000;Antwerpen
2861;Onze-Lieve-Vrouw-Waver;12035;Sint-Katelijne-Waver;10000;Antwerpen
2235;Hulshout-Westmeerbeek-Houtvenne;13016;Hulshout;10000;Antwerpen
2845;Niel;11030;Niel;10000;Antwerpen
2590;Berlaar-Gestel;12002;Berlaar;10000;Antwerpen
2040;Berendrecht-Zandvliet-Lillo;11002;Antwerpen;10000;Antwerpen
2000;Antwerpen;11002;Antwerpen;10000;Antwerpen
2180;Ekeren;11002;Antwerpen;10000;Antwerpen
2170;Merksem;11002;Antwerpen;10000;Antwerpen
2100;Deurne;11002;Antwerpen;10000;Antwerpen
2140;Borgerhout;11002;Antwerpen;10000;Antwerpen
2600;Berchem;11002;Antwerpen;10000;Antwerpen
2610;Wilrijk;11002;Antwerpen;10000;Antwerpen
2660;Hoboken;11002;Antwerpen;10000;Antwerpen
2330;Merksplas;13023;Merksplas;10000;Antwerpen
2360;Oud-Turnhout;13031;Oud-Turnhout;10000;Antwerpen
2520;Ranst-Oelegem-Broechem-Emblem;11035;Ranst;10000;Antwerpen
2990;Wuustwezel-Loenhout;11053;Wuustwezel;10000;Antwerpen
2260;Westerlo-Tongerlo-Zoerle-Parwijs-Oevel;13049;Westerlo;10000;Antwerpen
2390;Westmalle-Oostmalle;11057;Malle;10000;Antwerpen
2431;Veerle-Varendonk;13053;Laakdal;10000;Antwerpen
2430;Eindhout-Vorst;13053;Laakdal;10000;Antwerpen
2850;Boom;11005;Boom;10000;Antwerpen
2250;Olen;13029;Olen;10000;Antwerpen
2627;Schelle;11038;Schelle;10000;Antwerpen
2870;Puurs-Ruisbroek-Breendonk-Liezele;12030;Puurs-Sint-Amands;10000;Antwerpen
2890;Sint-Amands-Oppuurs-Lippelo;12034;Puurs-Sint-Amands;10000;Antwerpen
2547;Lint;11025;Lint;10000;Antwerpen
2380;Ravels;13035;Ravels;10000;Antwerpen
2381;Weelde;13035;Ravels;10000;Antwerpen
2382;Poppel;13035;Ravels;10000;Antwerpen
2820;Bonheiden-Rijmenam;12005;Bonheiden;10000;Antwerpen
2200;Herentals-Noorderwijk-Morkhoven;13011;Herentals;10000;Antwerpen
2450;Meerhout;13021;Meerhout;10000;Antwerpen
2880;Bornem-Hingene-Mariekerke-Weert;12007;Bornem;10000;Antwerpen
2940;Stabroek-Hoevenen;11044;Stabroek;10000;Antwerpen
2160;Wommelgem;11052;Wommelgem;10000;Antwerpen
2110;Wijnegem;11050;Wijnegem;10000;Antwerpen
2620;Hemiksem;11018;Hemiksem;10000;Antwerpen
2500;Lier-Koningshooikt;12021;Lier;10000;Antwerpen
2290;Vorselaar;13044;Vorselaar;10000;Antwerpen
2470;Retie;13036;Retie;10000;Antwerpen
2275;Lille-Wechelderzande-Gierle-Poederlee;13019;Lille;10000;Antwerpen
2560;Nijlen-Bevel-Kessel;12026;Nijlen;10000;Antwerpen
2970;Schilde-'s-Gravenwezel;11039;Schilde;10000;Antwerpen
2930;Brasschaat;11008;Brasschaat;10000;Antwerpen
2280;Grobbendonk;13010;Grobbendonk;10000;Antwerpen
2288;Bouwel;13010;Grobbendonk;10000;Antwerpen
2550;Kontich-Waarloos;11024;Kontich;10000;Antwerpen
2490;Balen;13003;Balen;10000;Antwerpen
2491;Olmen;13003;Balen;10000;Antwerpen
2370;Arendonk;13001;Arendonk;10000;Antwerpen
2440;Geel;13008;Geel;10000;Antwerpen
2540;Hove;11021;Hove;10000;Antwerpen
2570;Duffel;12009;Duffel;10000;Antwerpen
2950;Kapellen;11023;Kapellen;10000;Antwerpen
2900;Schoten;11040;Schoten;10000;Antwerpen
2230;Herselt-Ramsel;13013;Herselt;10000;Antwerpen
2350;Vosselaar;13046;Vosselaar;10000;Antwerpen
2240;Zandhoven-Viersel-Massenhoven;11054;Zandhoven;10000;Antwerpen
2242;Pulderbos;11054;Zandhoven;10000;Antwerpen
2243;Pulle;11054;Zandhoven;10000;Antwerpen
2300;Turnhout;13040;Turnhout;10000;Antwerpen
2530;Boechout;11004;Boechout;10000;Antwerpen
2531;Vremde;11004;Boechout;10000;Antwerpen
2310;Rijkevorsel;13037;Rijkevorsel;10000;Antwerpen
2460;Kasterlee-Lichtaart-Tielen;13017;Kasterlee;10000;Antwerpen
2640;Mortsel;11029;Mortsel;10000;Antwerpen
2480;Dessel;13006;Dessel;10000;Antwerpen
2400;Mol;13025;Dessel;10000;Antwerpen
2840;Rumst-Terhagen-Reet;11037;Rumst;10000;Antwerpen
2220;Heist-op-den-Berg-Hallaar;12014;Heist-op-den-Berg;10000;Antwerpen
2222;Itegem-Wiekevorst;12014;Heist-op-den-Berg;10000;Antwerpen
2221;Booischot;12014;Heist-op-den-Berg;10000;Antwerpen
2223;Schriek;12014;Heist-op-den-Berg;10000;Antwerpen
2320;Hoogstraten;13014;Hoogstraten;10000;Antwerpen
2321;Meer;13014;Hoogstraten;10000;Antwerpen
2328;Meerle;13014;Hoogstraten;10000;Antwerpen
2323;Wortel;13014;Hoogstraten;10000;Antwerpen
2270;Herenthout;13012;Herenthout;10000;Antwerpen
2960;Brecht-Sint-Lenaarts-Sint-Job-in-'t-Goor;11009;Brecht;10000;Antwerpen
2630;Aartselaar;11001;Aartselaar;10000;Antwerpen
2340;Beerse-Vlimmeren;13004;Beerse;10000;Antwerpen
2980;Zoersel-Halle;11055;Zoersel;10000;Antwerpen
2830;Willebroek-Heindonk-Blaasveld-Tisselt;12040;Willebroek;10000;Antwerpen
2650;Edegem;11013;Edegem;10000;Antwerpen
8540;Deerlijk;34009;Deerlijk;30000;Flandre occidentale (la)
8770;Ingelmunster;36007;Ingelmunster;30000;Flandre occidentale (la)
8760;Meulebeke;37007;Meulebeke;30000;Flandre occidentale (la)
8980;Zonnebeke-Passendale-Beselare-Geluveld-Zandvoorde;33037;Zonnebeke;30000;Flandre occidentale (la)
8420;Klemskerke-Wenduine;35029;De Haan;30000;Flandre occidentale (la)
8421;Vlissegem;35029;De Haan;30000;Flandre occidentale (la)
8880;Ledegem-Rollegem-Kapelle-Sint-Eloois-Winkel;36010;Ledegem;30000;Flandre occidentale (la)
8650;Klerken-Houthulst-Merkem;32006;Houthulst;30000;Flandre occidentale (la)
8820;Torhout;31033;Torhout;30000;Flandre occidentale (la)
8460;Oudenburg-Ettelgem-Roksem-Westkerke;35014;Oudenburg;30000;Flandre occidentale (la)
8958;Loker;33039;Heuvelland;30000;Flandre occidentale (la)
8956;Kemmel;33039;Heuvelland;30000;Flandre occidentale (la)
8953;Wijtschate;33039;Heuvelland;30000;Flandre occidentale (la)
8952;Wulvergem;33039;Heuvelland;30000;Flandre occidentale (la)
8950;Nieuwkerke;33039;Heuvelland;30000;Flandre occidentale (la)
8951;Dranouter;33039;Heuvelland;30000;Flandre occidentale (la)
8954;Westouter;33039;Heuvelland;30000;Flandre occidentale (la)
8377;Zuienkerke-Meetkerke-Houtave-Nieuwmunster;31042;Zuienkerke;30000;Flandre occidentale (la)
8970;Poperinge-Reningelst;33021;Poperinge;30000;Flandre occidentale (la)
8972;Krombeke-Proven-Roesbrugge-Haringe;33021;Poperinge;30000;Flandre occidentale (la)
8978;Watou;33021;Poperinge;30000;Flandre occidentale (la)
8780;Oostrozebeke;37010;Oostrozebeke;30000;Flandre occidentale (la)
8640;Oostvleteren-Westvleteren-Woesten;33041;Vleteren;30000;Flandre occidentale (la)
8620;Nieuwpoort-Sint-Joris-Ramskapelle;38016;Nieuwpoort;30000;Flandre occidentale (la)
8680;Koekelare-Bovekerke-Zande;32010;Koekelare;30000;Flandre occidentale (la)
8720;Dentergem-Markegem-Oeselgem-Wakken;37002;Dentergem;30000;Flandre occidentale (la)
8660;De Panne-Adinkerke;38008;De Panne;30000;Flandre occidentale (la)
8840;Staden-Oostnieuwkerke-Westrozebeke;36019;Staden;30000;Flandre occidentale (la)
8300;Knokke-Westkapelle;31043;Knokke-Heist;30000;Flandre occidentale (la)
8301;Heist-Ramskapelle;31043;Knokke-Heist;30000;Flandre occidentale (la)
8860;Lendelede;34025;Lendelede;30000;Flandre occidentale (la)
8830;Hooglede-Gits;36006;Hooglede;30000;Flandre occidentale (la)
8570;Anzegem-Gijzelbrechtegem-Ingooigem-Vichte;34002;Anzegem;30000;Flandre occidentale (la)
8572;Kaster;34002;Anzegem;30000;Flandre occidentale (la)
8573;Tiegem;34002;Anzegem;30000;Flandre occidentale (la)
8450;Bredene;35002;Bredene;30000;Flandre occidentale (la)
8710;Wielsbeke-Ooigem-Sint-Baafs-Vijve;37017;Wielsbeke;30000;Flandre occidentale (la)
8810;Lichtervelde;36011;Lichtervelde;30000;Flandre occidentale (la)
8550;Zwevegem;34042;Zwevegem;30000;Flandre occidentale (la)
8553;Otegem;34042;Zwevegem;30000;Flandre occidentale (la)
8551;Heestert;34042;Zwevegem;30000;Flandre occidentale (la)
8552;Moen;34042;Zwevegem;30000;Flandre occidentale (la)
8554;Sint-Denijs;34042;Zwevegem;30000;Flandre occidentale (la)
8370;Blankenberge-Uitkerke;31004;Blankenberge;30000;Flandre occidentale (la)
8000;Brugge-Koolkerke;31005;Brugge;30000;Flandre occidentale (la)
8380;Lissewege-Dudzele;31005;Brugge;30000;Flandre occidentale (la)
8310;Sint-Kruis-Assebroek;31005;Brugge;30000;Flandre occidentale (la)
8200;Sint-Michiels-Sint-Andries;31005;Brugge;30000;Flandre occidentale (la)
8850;Ardooie;37020;Ardooie;30000;Flandre occidentale (la)
8851;Koolskamp;37020;Ardooie;30000;Flandre occidentale (la)
8470;Gistel-Moere-Zevekote-Snaaskerke;35005;Gistel;30000;Flandre occidentale (la)
8430;Middelkerke;35011;Middelkerke;30000;Flandre occidentale (la)
8431;Wilskerke;35011;Middelkerke;30000;Flandre occidentale (la)
8432;Leffinge;35011;Middelkerke;30000;Flandre occidentale (la)
8433;Sint-Pieters-Kapelle-Schore-Mannekensvere-Slijpe;35011;Middelkerke;30000;Flandre occidentale (la)
8434;Westende-Lombardsijde;35011;Middelkerke;30000;Flandre occidentale (la)
8647;Lo-Pollinkhove-Reninge-Noordschote;32030;Lo-Reninge;30000;Flandre occidentale (la)
8700;Tielt-Schuiferskapelle-Kanegem-Aarsele;37015;Tielt;30000;Flandre occidentale (la)
8587;Spiere-Helkijn;34043;Espierres-Helchin;30000;Flandre occidentale (la)
8530;Harelbeke;34013;Harelbeke;30000;Flandre occidentale (la)
8531;Bavikhove-Hulste;34013;Harelbeke;30000;Flandre occidentale (la)
8957;Mesen;33016;Messines;30000;Flandre occidentale (la)
8020;Oostkamp-Hertsberge-Ruddervoorde-Waardamme;31022;Oostkamp;30000;Flandre occidentale (la)
8670;Koksijde-Oostduinkerke-Wulpen;38014;Koksijde;30000;Flandre occidentale (la)
8520;Kuurne;34023;Kuurne;30000;Flandre occidentale (la)
8730;Beernem-Oedelem-Sint-Joris;31003;Beernem;30000;Flandre occidentale (la)
8340;Damme-Hoeke-Oostkerke-Lapscheure-Moerkerke-Sijsele;31006;Damme;30000;Flandre occidentale (la)
8940;Wervik-Geluwe;33029;Wervik;30000;Flandre occidentale (la)
8500;Kortrijk;34022;Kortrijk;30000;Flandre occidentale (la)
8501;Heule-Bissegem;34022;Kortrijk;30000;Flandre occidentale (la)
8510;Marke-Rollegem-Bellegem-Kooigem;34022;Kortrijk;30000;Flandre occidentale (la)
8511;Aalbeke;34022;Kortrijk;30000;Flandre occidentale (la)
8490;Jabbeke-Zerkegem-Stalhille-Varsenare-Snellegem;31012;Jabbeke;30000;Flandre occidentale (la)
8870;Izegem-Emelgem-Kachtem;36008;Izegem;30000;Flandre occidentale (la)
8740;Pittem-Egem;37011;Pittem;30000;Flandre occidentale (la)
8600;Diksmuide-Kaaskerke-Esen-Beerst-Keiem-Leke-Vladslo-Woumen-Nieuwkapelle-Oudekapelle-Sint-Jacobs-Kapelle-Oostkerke-Lampernisse-Pervijze-Stuivekenskerke;32003;Diksmuide;30000;Flandre occidentale (la)
8630;Veurne-Booitshoeke-Avekapelle-Eggewaartskapelle-Zoutenaaie-Steenkerke-Bulskamp-Wulveringem-Vinkem-Houtem-De Moeren;38025;Veurne;30000;Flandre occidentale (la)
8610;Kortemark-Handzame-Werken-Zarren;32011;Kortemark;30000;Flandre occidentale (la)
8210;Zedelgem-Loppem-Veldegem;31040;Zedelgem;30000;Flandre occidentale (la)
8211;Aartrijke;31040;Zedelgem;30000;Flandre occidentale (la)
8920;Langemark-Bikschote-Poelkapelle;33040;Langemark-Poelkapelle;30000;Flandre occidentale (la)
8580;Avelgem;34003;Avelgem;30000;Flandre occidentale (la)
8581;Waarmaarde-Kerkhove;34003;Avelgem;30000;Flandre occidentale (la)
8582;Outrijve;34003;Avelgem;30000;Flandre occidentale (la)
8583;Bossuit;34003;Avelgem;30000;Flandre occidentale (la)
8480;Ichtegem-Eernegem-Bekegem;35006;Ichtegem;30000;Flandre occidentale (la)
8890;Moorslede-Dadizele;36012;Moorslede;30000;Flandre occidentale (la)
8930;Menen-Lauwe-Rekkem;34027;Menen;30000;Flandre occidentale (la)
8560;Wevelgem-Gullegem-Moorsele;34041;Wevelgem;30000;Flandre occidentale (la)
8790;Waregem;34040;Waregem;30000;Flandre occidentale (la)
8791;Beveren;34040;Waregem;30000;Flandre occidentale (la)
8792;Desselgem;34040;Waregem;30000;Flandre occidentale (la)
8793;Sint-Eloois-Vijve;34040;Waregem;30000;Flandre occidentale (la)
8900;Ieper-Brielen-Sint-Jan-Dikkebus;33011;Ieper;30000;Flandre occidentale (la)
8904;Boezinge-Zuidschote;33011;Ieper;30000;Flandre occidentale (la)
8906;Elverdinge;33011;Ieper;30000;Flandre occidentale (la)
8908;Vlamertinge;33011;Ieper;30000;Flandre occidentale (la)
8902;Voormezele-Hollebeke-Zillebeke;33011;Ieper;30000;Flandre occidentale (la)
8755;Ruiselede;37012;Ruiselede;30000;Flandre occidentale (la)
8800;Roeselare-Beveren-Oekene-Rumbeke;36015;Roeselare;30000;Flandre occidentale (la)
8690;Oeren-Alveringem-Sint-Rijkers-Hoogstade;38002;Alveringem;30000;Flandre occidentale (la)
8691;Leisele-Izenberge-Gijverinkhove-Stavele-Beveren;38002;Alveringem;30000;Flandre occidentale (la)
8750;Wingene-Zwevezele;37018;Wingene;30000;Flandre occidentale (la)
8400;Stene-Oostende-Zandvoorde;35013;Oostende;30000;Flandre occidentale (la)
3500;Hasselt-Sint-Lambrechts-Herk;71022;Hasselt;70000;Limbourg (le)
3501;Wimmertingen;71022;Hasselt;70000;Limbourg (le)
3511;Kuringen-Stokrooie;71022;Hasselt;70000;Limbourg (le)
3510;Kermt-Spalbeek;71022;Hasselt;70000;Limbourg (le)
3512;Stevoort;71022;Hasselt;70000;Limbourg (le)
3690;Zutendaal;71067;Zutendaal;70000;Limbourg (le)
3870;Heers-Batsheers-Opheers-Veulen-Gutschoven-Mettekoven-Klein-Gelmen-Heks-Horpmaal-Vechmaal-Mechelen-Bovelingen-Rukkelingen-Loon;73022;Heers;70000;Limbourg (le)
3580;Beringen;71004;Beringen;70000;Limbourg (le)
3583;Paal;71004;Beringen;70000;Limbourg (le)
3582;Koersel;71004;Beringen;70000;Limbourg (le)
3581;Beverlo;71004;Beringen;70000;Limbourg (le)
3700;Tongeren-Koninksem-Neerrepen-Riksingen-Henis-Berg-Mal-Sluizen-Nerem-Vreren-Diets-Heur-Rutten-Lauw-Widooie-Piringen-Overrepen-'s-Herenelderen;73083;Tongeren;70000;Limbourg (le)
3570;Alken;73001;Alken;70000;Limbourg (le)
3740;Bilzen-Beverst-Munsterbilzen-Waltwilder-Eigenbilzen-Mopertingen-Hees-Rosmeer-Kleine-Spouwen-Grote-Spouwen-Rijkhoven;73006;Bilzen;70000;Limbourg (le)
3746;Hoelbeek;73006;Bilzen;70000;Limbourg (le)
3742;Martenslinde;73006;Bilzen;70000;Limbourg (le)
3840;Borgloon-Kuttekoven-Kerniel-Gors-Opleeuw-Jesseren-Bommershoven-Groot-Loon-Broekom-Hendrieken-Voort-Gotem-Hoepertingen-Rijkel;73009;Borgloon;70000;Limbourg (le)
3950;Bocholt-Reppel-Kaulille;72003;Bocholt;70000;Limbourg (le)
3940;Hechtel;72038;Hechtel-Eksel;70000;Limbourg (le)
3941;Eksel;72038;Hechtel-Eksel;70000;Limbourg (le)
3650;Dilsen-Rotem-Elen-Stokkem-Lanklaar;72041;Dilsen-Stokkem;70000;Limbourg (le)
3540;Herk-de-Stad-Donk-Schulen-Berbroek;71024;Herk-de-Stad;70000;Limbourg (le)
3680;Maaseik-Neeroeteren-Opoeteren;72021;Maaseik;70000;Limbourg (le)
3730;Hoeselt-Werm-Romershoven-Sint-Huibrechts-Hern;73032;Hoeselt;70000;Limbourg (le)
3732;Schalkhoven;73032;Hoeselt;70000;Limbourg (le)
3890;Gingelom-Niel-bij-Sint-Truiden-Boekhout-Jeuk-Montenaken-Kortijs-Vorsen;71017;Gingelom;70000;Limbourg (le)
3891;Muizen-Buvingen-Borlo-Mielen-boven-Aalst;71017;Gingelom;70000;Limbourg (le)
3545;Halen-Loksbergen-Zelem;71020;Halen;70000;Limbourg (le)
3850;Nieuwerkerken-Binderveld-Wijer-Kozen;71045;Nieuwerkerken;70000;Limbourg (le)
3640;Kinrooi-Molenbeersel-Kessenich-Ophoven;72018;Kinrooi;70000;Limbourg (le)
3530;Houthalen-Helchteren;72039;Houthalen-Helchteren;70000;Limbourg (le)
3800;Sint-Truiden-Halmaal-Zepperen-Ordingen-Brustem-Groot-Gelmen-Engelmanshoven-Gelinden-Aalst-Kerkom-bij-Sint-Truiden;71053;Sint-Truiden;70000;Limbourg (le)
3803;Wilderen-Duras-Gorsem-Runkelen;71053;Sint-Truiden;70000;Limbourg (le)
3806;Velm;71053;Sint-Truiden;70000;Limbourg (le)
3717;Herstappe;73028;Herstappe;70000;Limbourg (le)
3590;Diepenbeek;71011;Diepenbeek;70000;Limbourg (le)
3945;Oostham-Kwaadmechelen;71069;Ham;70000;Limbourg (le)
3960;Bree-Beek-Gerdingen-Tongerlo-Opitter;72004;Bree;70000;Limbourg (le)
4600;Visé-Richelle-Lixhe-Lanaye;62108;Fourons;70000;Limbourg (le)
3798;'s-Gravenvoeren;73109;Fourons;70000;Limbourg (le)
3790;Sint-Martens-Voeren-Moelingen;73109;Fourons;70000;Limbourg (le)
3793;Teuven;73109;Fourons;70000;Limbourg (le)
3791;Remersdaal;73109;Fourons;70000;Limbourg (le)
3792;Sint-Pieters-Voeren;73109;Fourons;70000;Limbourg (le)
3970;Leopoldsburg;71034;Leopoldsburg;70000;Limbourg (le)
3971;Heppen;71034;Leopoldsburg;70000;Limbourg (le)
3520;Zonhoven;71066;Zonhoven;70000;Limbourg (le)
3560;Lummen-Linkhout-Meldert;71037;Lummen;70000;Limbourg (le)
3665;As;71002;As;70000;Limbourg (le)
3668;Niel-bij-As;71002;As;70000;Limbourg (le)
3630;Mechelen-aan-de-Maas-Opgrimbie-Vucht-Eisden-Leut-Meeswijk;73107;Maasmechelen;70000;Limbourg (le)
3631;Boorsem-Uikhoven;73107;Maasmechelen;70000;Limbourg (le)
3720;Kortessem;73040;Kortessem;70000;Limbourg (le)
3722;Wintershoven;73040;Kortessem;70000;Limbourg (le)
3721;Vliermaalroot;73040;Kortessem;70000;Limbourg (le)
3724;Vliermaal;73040;Kortessem;70000;Limbourg (le)
3723;Guigoven;73040;Kortessem;70000;Limbourg (le)
3660;Opglabbeek;71047;Oudsbergen;70000;Limbourg (le)
3670;Meeuwen-Wijshagen-Ellikom-Gruitrode-Neerglabbeek;72040;Oudsbergen;70000;Limbourg (le)
3770;Riemst-Herderen-Vlijtingen-Vroenhoven-Kanne-Zichen-Zussen-Bolder-Val-Meer-Millen-Genoelselderen-Membruggen;73066;Riemst;70000;Limbourg (le)
3600;Genk;71016;Genk;70000;Limbourg (le)
3910;Neerpelt-Sint-Huibrechts-Lille;72025;Pelt;70000;Limbourg (le)
3900;Overpelt;72029;Pelt;70000;Limbourg (le)
3620;Lanaken-Neerharen-Veldwezelt-Gellik;73042;Lanaken;70000;Limbourg (le)
3621;Rekem;73042;Lanaken;70000;Limbourg (le)
3980;Tessenderlo;71057;Tessenderlo;70000;Limbourg (le)
3830;Wellen-Berlingen;73098;Wellen;70000;Limbourg (le)
3831;Herten;73098;Wellen;70000;Limbourg (le)
3832;Ulbeek;73098;Wellen;70000;Limbourg (le)
3920;Lommel;72020;Lommel;70000;Limbourg (le)
3930;Hamont-Achel;72037;Hamont-Achel;70000;Limbourg (le)
3550;Heusden-Zolder;71070;Heusden-Zolder;70000;Limbourg (le)
3990;Peer-Kleine-Brogel-Grote-Brogel-Wijchmaal;72030;Peer;70000;Limbourg (le)
3040;Huldenberg-Loonbeek-Neerijse-Sint-Agatha-Rode-Ottenburg;24045;Huldenberg;20000;Brabant flamand (le)
1330;Rixensart;25091;Rixensart;20000;Brabant flamand (le)
1332;Genval;25091;Rixensart;20000;Brabant flamand (le)
1331;Rosières;25091;Rixensart;20000;Brabant flamand (le)
1457;Walhain-Saint-Paul-Nil-Saint-Vincent-Saint-Martin-Tourinnes-Saint-Lambert;25124;Walhain;20000;Brabant flamand (le)
3150;Haacht-Tildonk-Wespelaar;24033;Haacht;20000;Brabant flamand (le)
3130;Begijnendijk-Betekom;24007;Begijnendijk;20000;Brabant flamand (le)
3090;Overijse;23062;Overijse;20000;Brabant flamand (le)
1850;Grimbergen;23025;Grimbergen;20000;Brabant flamand (le)
1853;Strombeek-Bever;23025;Grimbergen;20000;Brabant flamand (le)
1852;Beigem;23025;Grimbergen;20000;Brabant flamand (le)
1851;Humbeek;23025;Grimbergen;20000;Brabant flamand (le)
1490;Court-Saint-Étienne;25023;Court-Saint-Étienne;20000;Brabant flamand (le)
1950;Kraainem;23099;Kraainem;20000;Brabant flamand (le)
1325;Chaumont-Gistoux-Corroy-le-Grand-Dion-le-Mont-Dion-le-Val-Bonlez-Longueville;25018;Chaumont-Gistoux;20000;Brabant flamand (le)
1430;Bierghes-Rebecq-Rognon-Quenast;25123;Rebecq;20000;Brabant flamand (le)
3070;Kortenberg;24055;Kortenberg;20000;Brabant flamand (le)
3071;Erps-Kwerps;24055;Kortenberg;20000;Brabant flamand (le)
3078;Meerbeek-Everberg;24055;Kortenberg;20000;Brabant flamand (le)
1770;Liedekerke;23044;Liedekerke;20000;Brabant flamand (le)
3120;Tremelo;24109;Tremelo;20000;Brabant flamand (le)
3128;Baal;24109;Tremelo;20000;Brabant flamand (le)
1970;Wezembeek-Oppem;23103;Wezembeek-Oppem;20000;Brabant flamand (le)
1820;Steenokkerzeel-Melsbroek-Perk;23081;Steenokkerzeel;20000;Brabant flamand (le)
1500;Halle;23027;Halle;20000;Brabant flamand (le)
1501;Buizingen;23027;Halle;20000;Brabant flamand (le)
1502;Lembeek;23027;Halle;20000;Brabant flamand (le)
3270;Scherpenheuvel;24134;Scherpenheuvel-Zichem;20000;Brabant flamand (le)
3271;Zichem-Averbode;24134;Scherpenheuvel-Zichem;20000;Brabant flamand (le)
3272;Messelbroek-Testelt;24134;Scherpenheuvel-Zichem;20000;Brabant flamand (le)
1470;Genappe-Baisy-Thy-Bousval;25031;Genappe;20000;Brabant flamand (le)
1471;Loupoigne;25031;Genappe;20000;Brabant flamand (le)
1476;Houtain-le-Val;25031;Genappe;20000;Brabant flamand (le)
1472;Vieux-Genappe;25031;Genappe;20000;Brabant flamand (le)
1473;Glabais;25031;Genappe;20000;Brabant flamand (le)
1474;Ways;25031;Genappe;20000;Brabant flamand (le)
3440;Zoutleeuw-Helen-Bos-Halle-Booienhoven-Dormaal-Budingen;24130;Zoutleeuw;20000;Brabant flamand (le)
3300;Tienen-Oorbeek-Bost-Kumtich-Vissenaken-Sint-Margriete-Houtem-Oplinter-Hakendover-Goetsenhoven;24107;Tienen;20000;Brabant flamand (le)
3290;Diest-Webbekom-Schaffen-Deurne;24020;Diest;20000;Brabant flamand (le)
3293;Kaggevinne;24020;Diest;20000;Brabant flamand (le)
3294;Molenstede;24020;Diest;20000;Brabant flamand (le)
1350;Orp-le-Grand-Jandrain-Jandrenouille-Jauche-Folx-les-Caves-Énines-Marilles-Noduwez;25120;Orp-Jauche;20000;Brabant flamand (le)
1760;Pamel-Strijtem-Onze-Lieve-Vrouw-Lombeek;23097;Roosdaal;20000;Brabant flamand (le)
1761;Borchtlombeek;23097;Roosdaal;20000;Brabant flamand (le)
1357;Neerheylissem-Opheylissem-Linsmeau;25118;Hélécine;20000;Brabant flamand (le)
3200;Aarschot-Gelrode;24001;Aarschot;20000;Brabant flamand (le)
3201;Langdorp;24001;Aarschot;20000;Brabant flamand (le)
3202;Rillaar;24001;Aarschot;20000;Brabant flamand (le)
1560;Hoeilaart;23033;Hoeilaart;20000;Brabant flamand (le)
3460;Bekkevoort-Assent;24008;Bekkevoort;20000;Brabant flamand (le)
3461;Molenbeek-Wersbeek;24008;Bekkevoort;20000;Brabant flamand (le)
1750;Sint-Kwintens-Lennik-Sint-Martens-Lennik-Gaasbeek;23104;Lennik;20000;Brabant flamand (le)
3380;Glabbeek-Zuurbemde-Bunsbeek;24137;Glabbeek;20000;Brabant flamand (le)
3384;Attenrode;24137;Glabbeek;20000;Brabant flamand (le)
3381;Kapellen;24137;Glabbeek;20000;Brabant flamand (le)
1650;Beersel;23003;Beersel;20000;Brabant flamand (le)
1652;Alsemberg;23003;Beersel;20000;Brabant flamand (le)
1653;Dworp;23003;Beersel;20000;Brabant flamand (le)
1654;Huizingen;23003;Beersel;20000;Brabant flamand (le)
1651;Lot;23003;Beersel;20000;Brabant flamand (le)
1390;Grez-Doiceau-Archennes-Biez-Bossut-Gottechain-Nethen;25037;Grez-Doiceau;20000;Brabant flamand (le)
1980;Zemst-Eppegem;23096;Zemst;20000;Brabant flamand (le)
1981;Hofstade;23096;Zemst;20000;Brabant flamand (le)
1982;Weerde-Elewijt;23096;Zemst;20000;Brabant flamand (le)
3140;Keerbergen;24048;Keerbergen;20000;Brabant flamand (le)
3012;Wilsele;24062;Leuven;20000;Brabant flamand (le)
3001;Heverlee;24062;Leuven;20000;Brabant flamand (le)
3000;Leuven;24062;Leuven;20000;Brabant flamand (le)
3010;Kessel-Lo;24062;Leuven;20000;Brabant flamand (le)
3370;Boutersem-Vertrijk-Kerkom-Roosbeek-Neervelp-Willebringen;24016;Boutersem;20000;Brabant flamand (le)
1785;Merchtem-Brussegem-Hamme;23052;Merchtem;20000;Brabant flamand (le)
1460;Ittre-Virginal-Samme;25044;Ittre;20000;Brabant flamand (le)
1461;Haut-Ittre;25044;Ittre;20000;Brabant flamand (le)
1910;Kampenhout-Buken-Nederokkerzeel-Berg;23038;Kampenhout;20000;Brabant flamand (le)
1740;Ternat;23086;Ternat;20000;Brabant flamand (le)
1741;Wambeek;23086;Ternat;20000;Brabant flamand (le)
1742;Sint-Katherina-Lombeek;23086;Ternat;20000;Brabant flamand (le)
1730;Asse-Mollem-Kobbegem-Bekkerzeel;23002;Asse;20000;Brabant flamand (le)
1731;Relegem-Zellik;23002;Asse;20000;Brabant flamand (le)
3110;Rotselaar;24094;Rotselaar;20000;Brabant flamand (le)
3118;Werchter;24094;Rotselaar;20000;Brabant flamand (le)
3111;Wezemaal;24094;Rotselaar;20000;Brabant flamand (le)
1540;Herne-Herfelingen;23032;Herne;20000;Brabant flamand (le)
1541;Sint-Pieters-Kapelle;23032;Herne;20000;Brabant flamand (le)
1420;Braine-l'Alleud;25014;Braine-l'Alleud;20000;Brabant flamand (le)
1428;Lillois-Witterzée;25014;Braine-l'Alleud;20000;Brabant flamand (le)
1421;Ophain-Bois-Seigneur-Isaac;25014;Braine-l'Alleud;20000;Brabant flamand (le)
3360;Bierbeek-Korbeek-Lo-Lovenjoel-Opvelp;24011;Bierbeek;20000;Brabant flamand (le)
1410;Waterloo;25110;Waterloo;20000;Brabant flamand (le)
1300;Wavre-Limal;25112;Wavre;20000;Brabant flamand (le)
1301;Bierges;25112;Wavre;20000;Brabant flamand (le)
1860;Meise;23050;Meise;20000;Brabant flamand (le)
1861;Wolvertem;23050;Meise;20000;Brabant flamand (le)
1840;Londerzeel-Malderen-Steenhuffel;23045;Londerzeel;20000;Brabant flamand (le)
1600;Sint-Pieters-Leeuw-Oudenaken-Sint-Laureins-Berchem;23077;Sint-Pieters-Leeuw;20000;Brabant flamand (le)
1602;Vlezenbeek;23077;Sint-Pieters-Leeuw;20000;Brabant flamand (le)
1601;Ruisbroek;23077;Sint-Pieters-Leeuw;20000;Brabant flamand (le)
1380;Lasne-Chapelle-Saint-Lambert-Couture-Saint-Germain-Maransart-Ohain-Plancenoit;25119;Lasne;20000;Brabant flamand (le)
1400;Nivelles-Monstreux;25072;Nivelles;20000;Brabant flamand (le)
1401;Baulers;25072;Nivelles;20000;Brabant flamand (le)
1402;Thines;25072;Nivelles;20000;Brabant flamand (le)
1404;Bornival;25072;Nivelles;20000;Brabant flamand (le)
1630;Linkebeek;23100;Linkebeek;20000;Brabant flamand (le)
1570;Galmaarden-Vollezele-Tollembeek;23023;Galmaarden;20000;Brabant flamand (le)
1880;Kapelle-op-den-Bos-Nieuwenrode-Ramsdonk;23039;Kapelle-op-den-Bos;20000;Brabant flamand (le)
1370;Jodoigne-Jodoigne-Souveraine-Jauchelette-Dongelberg-Lathuy-Mélin-Saint-Remy-Geest-Zétrud-Lumay-Saint-Jean-Geest-Piétrain;25048;Jodoigne;20000;Brabant flamand (le)
3470;Kortenaken-Ransberg;24054;Kortenaken;20000;Brabant flamand (le)
3471;Hoeleden;24054;Kortenaken;20000;Brabant flamand (le)
3472;Kersbeek-Miskom;24054;Kortenaken;20000;Brabant flamand (le)
3473;Waanrode;24054;Kortenaken;20000;Brabant flamand (le)
1340;Ottignies;25121;Ottignies-Louvain-la-Neuve;20000;Brabant flamand (le)
1341;Céroux-Mousty;25121;Ottignies-Louvain-la-Neuve;20000;Brabant flamand (le)
1342;Limelette;25121;Ottignies-Louvain-la-Neuve;20000;Brabant flamand (le)
3450;Geetbets-Grazen;24028;Geetbets;20000;Brabant flamand (le)
3454;Rummen;24028;Geetbets;20000;Brabant flamand (le)
1360;Perwez-Thorembais-Saint-Trond-Orbais-Malèves-Sainte-Marie-Wastines-Thorembais-les-Béguines;25084;Perwez;20000;Brabant flamand (le)
1755;Gooik-Leerbeek-Oetingen-Kester;23024;Gooik;20000;Brabant flamand (le)
3400;Landen-Rumsdorp-Neerwinden-Wange-Eliksem-Ezemaal-Laar-Overwinden;24059;Landen;20000;Brabant flamand (le)
3401;Walshoutem-Waasmont-Walsbets-Wezeren;24059;Landen;20000;Brabant flamand (le)
3404;Attenhoven-Neerlanden;24059;Landen;20000;Brabant flamand (le)
1315;Incourt-Glimes-Opprebais-Roux-Miroir-Piétrebais;25043;Incourt;20000;Brabant flamand (le)
1495;Villers-la-Ville-Tilly-Mellery-Marbais-Sart-Dames-Avelines;25107;Villers-la-Ville;20000;Brabant flamand (le)
1830;Machelen;23047;Machelen;20000;Brabant flamand (le)
1831;Diegem;23047;Machelen;20000;Brabant flamand (le)
1367;Ramillies-Offus-Grand-Rosière-Hottomont-Geest-Gérompont-Petit-Rosière-Mont-Saint-André-Bomal-Autre-Église-Huppaye;25122;Ramillies;20000;Brabant flamand (le)
3220;Holsbeek-Kortrijk-Dutsel-Sint-Pieters-Rode;24043;Holsbeek;20000;Brabant flamand (le)
3221;Nieuwrode;24043;Holsbeek;20000;Brabant flamand (le)
3350;Drieslinter-Neerlinter-Orsmaal-Gussenhoven-Melkwezer-Neerhespen-Overhespen-Wommersom;24133;Linter;20000;Brabant flamand (le)
3050;Oud-Heverlee;24086;Oud-Heverlee;20000;Brabant flamand (le)
3054;Vaalbeek;24086;Oud-Heverlee;20000;Brabant flamand (le)
3052;Blanden;24086;Oud-Heverlee;20000;Brabant flamand (le)
3053;Haasrode;24086;Oud-Heverlee;20000;Brabant flamand (le)
3051;Sint-Joris-Weert;24086;Oud-Heverlee;20000;Brabant flamand (le)
1310;La Hulpe;25050;La Hulpe;20000;Brabant flamand (le)
3210;Lubbeek-Linden;24066;Lubbeek;20000;Brabant flamand (le)
3211;Binkom;24066;Lubbeek;20000;Brabant flamand (le)
3212;Pellenberg;24066;Lubbeek;20000;Brabant flamand (le)
1700;Dilbeek-Sint-Ulriks-Kapelle-Sint-Martens-Bodegem;23016;Dilbeek;20000;Brabant flamand (le)
1702;Groot-Bijgaarden;23016;Dilbeek;20000;Brabant flamand (le)
1701;Itterbeek;23016;Dilbeek;20000;Brabant flamand (le)
1703;Schepdaal;23016;Dilbeek;20000;Brabant flamand (le)
3060;Bertem-Korbeek-Dijle;24009;Bertem;20000;Brabant flamand (le)
3061;Leefdaal;24009;Bertem;20000;Brabant flamand (le)
1745;Opwijk-Mazenzele;23060;Opwijk;20000;Brabant flamand (le)
1800;Vilvoorde-Peutie;23088;Vilvoorde;20000;Brabant flamand (le)
1440;Braine-le-Château-Wauthier-Braine;25015;Braine-le-Château;20000;Brabant flamand (le)
3080;Tervuren-Vossem-Duisburg;24104;Tervuren;20000;Brabant flamand (le)
3190;Boortmeerbeek;24014;Boortmeerbeek;20000;Brabant flamand (le)
3191;Hever;24014;Boortmeerbeek;20000;Brabant flamand (le)
3020;Herent-Winksele-Veltem-Beisem;24038;Herent;20000;Brabant flamand (le)
1320;Beauvechain-L'Écluse-Tourinnes-la-Grosse-Nodebais-Hamme-Mille;25005;Beauvechain;20000;Brabant flamand (le)
3390;Tielt-Sint-Joris-Winge-Houwaart;24135;Tielt-Winge;20000;Brabant flamand (le)
3391;Meensel-Kiezegem;24135;Tielt-Winge;20000;Brabant flamand (le)
1620;Drogenbos;23098;Drogenbos;20000;Brabant flamand (le)
1930;Zaventem-Nossegem;23094;Zaventem;20000;Brabant flamand (le)
1933;Sterrebeek;23094;Zaventem;20000;Brabant flamand (le)
1932;Sint-Stevens-Woluwe;23094;Zaventem;20000;Brabant flamand (le)
1780;Wemmel;23102;Wemmel;20000;Brabant flamand (le)
1547;Bever;23009;Biévène;20000;Brabant flamand (le)
1670;Pepingen-Bogaarden-Heikruis;23064;Pepingen;20000;Brabant flamand (le)
1671;Elingen;23064;Pepingen;20000;Brabant flamand (le)
1673;Beert;23064;Pepingen;20000;Brabant flamand (le)
1674;Bellingen;23064;Pepingen;20000;Brabant flamand (le)
1480;Tubize-Oisquercq-Clabecq-Saintes;25105;Tubize;20000;Brabant flamand (le)
1790;Hekelgem-Essene-Teralfene;23105;Affligem;20000;Brabant flamand (le)
1640;Sint-Genesius-Rode;23101;Rhode-Saint-Genèse;20000;Brabant flamand (le)
1450;Chastre-Villeroux-Blanmont-Cortil-Noirmont-Saint-Géry-Gentinnes;25117;Chastre;20000;Brabant flamand (le)
1435;Mont-Saint-Guibert-Corbais-Hévillers;25068;Mont-Saint-Guibert;20000;Brabant flamand (le)
3320;Hoegaarden-Meldert;24041;Hoegaarden;20000;Brabant flamand (le)
3321;Outgaarden;24041;Hoegaarden;20000;Brabant flamand (le)
1050;Ixelles;21009;Ixelles;4000;Brussels
1170;Watermael-Boitsfort;21017;Watermael-Boitsfort;4000;Brussels
1090;Jette;21010;Jette;4000;Brussels
1160;Auderghem;21002;Auderghem;4000;Brussels
1080;Molenbeek-Saint-Jean;21012;Molenbeek-Saint-Jean;4000;Brussels
1180;Uccle;21016;Uccle;4000;Brussels
1190;Forest;21007;Forest;4000;Brussels
1200;Woluwe-Saint-Lambert;21018;Woluwe-Saint-Lambert;4000;Brussels
1140;Evere;21006;Evere;4000;Brussels
1081;Koekelberg;21011;Koekelberg;4000;Brussels
1070;Anderlecht;21001;Anderlecht;4000;Brussels
1083;Ganshoren;21008;Ganshoren;4000;Brussels
1082;Berchem-Sainte-Agathe;21003;Berchem-Sainte-Agathe;4000;Brussels
1060;Saint-Gilles;21013;Saint-Gilles;4000;Brussels
1210;Saint-Josse-ten-Noode;21014;Saint-Josse-ten-Noode;4000;Brussels
1000;Bruxelles;21004;Brussels;4000;Brussels
1030;Schaerbeek;21015;Schaerbeek;4000;Brussels
1150;Woluwe-Saint-Pierre;21019;Woluwe-Saint-Pierre;4000;Brussels
1040;Etterbeek;21005;Etterbeek;4000;Brussels
2387;Baarle-Hertog;13002;Turnhout;10000;Antwerpen
2322;Minderhout;13014;Hoogstraten;10000;Antwerpen
1020;Laeken;21004;Schaerbeek;4000;Brussels